20180303030806,10.0.0.2,43055,10.0.0.1,5001,3,0.0-1.0,393216,3145728
20180303030807,10.0.0.2,43055,10.0.0.1,5001,3,1.0-2.0,262144,2097152
20180303030808,10.0.0.2,43055,10.0.0.1,5001,3,2.0-3.0,262144,2097152
20180303030809,10.0.0.2,43055,10.0.0.1,5001,3,3.0-4.0,131072,1048576
20180303030810,10.0.0.2,43055,10.0.0.1,5001,3,4.0-5.0,262144,2097152
20180303030811,10.0.0.2,43055,10.0.0.1,5001,3,5.0-6.0,262144,2097152
20180303030812,10.0.0.2,43055,10.0.0.1,5001,3,6.0-7.0,262144,2097152
20180303030813,10.0.0.2,43055,10.0.0.1,5001,3,7.0-8.0,262144,2097152
20180303030813,10.0.0.2,43055,10.0.0.1,5001,3,8.0-9.0,131072,1048576
20180303030814,10.0.0.2,43055,10.0.0.1,5001,3,9.0-10.0,262144,2097152
20180303030816,10.0.0.2,43055,10.0.0.1,5001,3,10.0-11.0,262144,2097152
20180303030817,10.0.0.2,43055,10.0.0.1,5001,3,11.0-12.0,262144,2097152
20180303030818,10.0.0.2,43055,10.0.0.1,5001,3,12.0-13.0,262144,2097152
20180303030819,10.0.0.2,43055,10.0.0.1,5001,3,13.0-14.0,262144,2097152
20180303030819,10.0.0.2,43055,10.0.0.1,5001,3,14.0-15.0,131072,1048576
20180303030820,10.0.0.2,43055,10.0.0.1,5001,3,15.0-16.0,262144,2097152
20180303030822,10.0.0.2,43055,10.0.0.1,5001,3,16.0-17.0,262144,2097152
20180303030823,10.0.0.2,43055,10.0.0.1,5001,3,17.0-18.0,262144,2097152
20180303030824,10.0.0.2,43055,10.0.0.1,5001,3,18.0-19.0,262144,2097152
20180303030825,10.0.0.2,43055,10.0.0.1,5001,3,19.0-20.0,262144,2097152
20180303030826,10.0.0.2,43055,10.0.0.1,5001,3,20.0-21.0,131072,1048576
20180303030827,10.0.0.2,43055,10.0.0.1,5001,3,21.0-22.0,262144,2097152
20180303030828,10.0.0.2,43055,10.0.0.1,5001,3,22.0-23.0,262144,2097152
20180303030829,10.0.0.2,43055,10.0.0.1,5001,3,23.0-24.0,262144,2097152
20180303030830,10.0.0.2,43055,10.0.0.1,5001,3,24.0-25.0,262144,2097152
20180303030831,10.0.0.2,43055,10.0.0.1,5001,3,25.0-26.0,262144,2097152
20180303030832,10.0.0.2,43055,10.0.0.1,5001,3,26.0-27.0,131072,1048576
20180303030833,10.0.0.2,43055,10.0.0.1,5001,3,27.0-28.0,262144,2097152
20180303030834,10.0.0.2,43055,10.0.0.1,5001,3,28.0-29.0,262144,2097152
20180303030835,10.0.0.2,43055,10.0.0.1,5001,3,29.0-30.0,262144,2097152
20180303030836,10.0.0.2,43055,10.0.0.1,5001,3,30.0-31.0,262144,2097152
20180303030837,10.0.0.2,43055,10.0.0.1,5001,3,31.0-32.0,262144,2097152
20180303030838,10.0.0.2,43055,10.0.0.1,5001,3,32.0-33.0,131072,1048576
20180303030839,10.0.0.2,43055,10.0.0.1,5001,3,33.0-34.0,262144,2097152
20180303030840,10.0.0.2,43055,10.0.0.1,5001,3,34.0-35.0,262144,2097152
20180303030841,10.0.0.2,43055,10.0.0.1,5001,3,35.0-36.0,262144,2097152
20180303030842,10.0.0.2,43055,10.0.0.1,5001,3,36.0-37.0,262144,2097152
20180303030843,10.0.0.2,43055,10.0.0.1,5001,3,37.0-38.0,131072,1048576
20180303030844,10.0.0.2,43055,10.0.0.1,5001,3,38.0-39.0,262144,2097152
20180303030845,10.0.0.2,43055,10.0.0.1,5001,3,39.0-40.0,262144,2097152
20180303030846,10.0.0.2,43055,10.0.0.1,5001,3,40.0-41.0,262144,2097152
20180303030847,10.0.0.2,43055,10.0.0.1,5001,3,41.0-42.0,262144,2097152
20180303030847,10.0.0.2,43055,10.0.0.1,5001,3,42.0-43.0,131072,1048576
20180303030848,10.0.0.2,43055,10.0.0.1,5001,3,43.0-44.0,262144,2097152
20180303030850,10.0.0.2,43055,10.0.0.1,5001,3,44.0-45.0,262144,2097152
20180303030851,10.0.0.2,43055,10.0.0.1,5001,3,45.0-46.0,262144,2097152
20180303030852,10.0.0.2,43055,10.0.0.1,5001,3,46.0-47.0,262144,2097152
20180303030853,10.0.0.2,43055,10.0.0.1,5001,3,47.0-48.0,262144,2097152
20180303030854,10.0.0.2,43055,10.0.0.1,5001,3,48.0-49.0,262144,2097152
20180303030855,10.0.0.2,43055,10.0.0.1,5001,3,49.0-50.0,131072,1048576
20180303030856,10.0.0.2,43055,10.0.0.1,5001,3,50.0-51.0,262144,2097152
20180303030857,10.0.0.2,43055,10.0.0.1,5001,3,51.0-52.0,262144,2097152
20180303030858,10.0.0.2,43055,10.0.0.1,5001,3,52.0-53.0,262144,2097152
20180303030859,10.0.0.2,43055,10.0.0.1,5001,3,53.0-54.0,262144,2097152
20180303030900,10.0.0.2,43055,10.0.0.1,5001,3,54.0-55.0,131072,1048576
20180303030901,10.0.0.2,43055,10.0.0.1,5001,3,55.0-56.0,262144,2097152
20180303030902,10.0.0.2,43055,10.0.0.1,5001,3,56.0-57.0,262144,2097152
20180303030903,10.0.0.2,43055,10.0.0.1,5001,3,57.0-58.0,262144,2097152
20180303030904,10.0.0.2,43055,10.0.0.1,5001,3,58.0-59.0,262144,2097152
20180303030904,10.0.0.2,43055,10.0.0.1,5001,3,59.0-60.0,131072,1048576
20180303030904,10.0.0.2,43055,10.0.0.1,5001,3,0.0-60.5,14548992,1922950
