20180303031317,10.0.0.2,43098,10.0.0.1,5001,3,0.0-1.0,393216,3145728
20180303031318,10.0.0.2,43098,10.0.0.1,5001,3,1.0-2.0,393216,3145728
20180303031318,10.0.0.2,43098,10.0.0.1,5001,3,2.0-3.0,131072,1048576
20180303031320,10.0.0.2,43098,10.0.0.1,5001,3,3.0-4.0,262144,2097152
20180303031322,10.0.0.2,43098,10.0.0.1,5001,3,4.0-5.0,131072,1048576
20180303031323,10.0.0.2,43098,10.0.0.1,5001,3,5.0-6.0,131072,1048576
20180303031323,10.0.0.2,43098,10.0.0.1,5001,3,6.0-7.0,0,0
20180303031324,10.0.0.2,43098,10.0.0.1,5001,3,7.0-8.0,131072,1048576
20180303031326,10.0.0.2,43098,10.0.0.1,5001,3,8.0-9.0,131072,1048576
20180303031327,10.0.0.2,43098,10.0.0.1,5001,3,9.0-10.0,131072,1048576
20180303031328,10.0.0.2,43098,10.0.0.1,5001,3,10.0-11.0,131072,1048576
20180303031328,10.0.0.2,43098,10.0.0.1,5001,3,11.0-12.0,0,0
20180303031331,10.0.0.2,43098,10.0.0.1,5001,3,12.0-13.0,131072,1048576
20180303031333,10.0.0.2,43098,10.0.0.1,5001,3,13.0-14.0,131072,1048576
20180303031333,10.0.0.2,43098,10.0.0.1,5001,3,14.0-15.0,0,0
20180303031333,10.0.0.2,43098,10.0.0.1,5001,3,15.0-16.0,0,0
20180303031335,10.0.0.2,43098,10.0.0.1,5001,3,16.0-17.0,131072,1048576
20180303031335,10.0.0.2,43098,10.0.0.1,5001,3,17.0-18.0,0,0
20180303031336,10.0.0.2,43098,10.0.0.1,5001,3,18.0-19.0,131072,1048576
20180303031336,10.0.0.2,43098,10.0.0.1,5001,3,19.0-20.0,0,0
20180303031339,10.0.0.2,43098,10.0.0.1,5001,3,20.0-21.0,131072,1048576
20180303031341,10.0.0.2,43098,10.0.0.1,5001,3,21.0-22.0,131072,1048576
20180303031341,10.0.0.2,43098,10.0.0.1,5001,3,22.0-23.0,0,0
20180303031341,10.0.0.2,43098,10.0.0.1,5001,3,23.0-24.0,0,0
20180303031342,10.0.0.2,43098,10.0.0.1,5001,3,24.0-25.0,131072,1048576
20180303031342,10.0.0.2,43098,10.0.0.1,5001,3,25.0-26.0,0,0
20180303031344,10.0.0.2,43098,10.0.0.1,5001,3,26.0-27.0,131072,1048576
20180303031345,10.0.0.2,43098,10.0.0.1,5001,3,27.0-28.0,131072,1048576
20180303031345,10.0.0.2,43098,10.0.0.1,5001,3,28.0-29.0,131072,1048576
20180303031346,10.0.0.2,43098,10.0.0.1,5001,3,29.0-30.0,131072,1048576
20180303031346,10.0.0.2,43098,10.0.0.1,5001,3,30.0-31.0,131072,1048576
20180303031348,10.0.0.2,43098,10.0.0.1,5001,3,31.0-32.0,262144,2097152
20180303031349,10.0.0.2,43098,10.0.0.1,5001,3,32.0-33.0,131072,1048576
20180303031350,10.0.0.2,43098,10.0.0.1,5001,3,33.0-34.0,131072,1048576
20180303031351,10.0.0.2,43098,10.0.0.1,5001,3,34.0-35.0,131072,1048576
20180303031353,10.0.0.2,43098,10.0.0.1,5001,3,35.0-36.0,262144,2097152
20180303031354,10.0.0.2,43098,10.0.0.1,5001,3,36.0-37.0,131072,1048576
20180303031355,10.0.0.2,43098,10.0.0.1,5001,3,37.0-38.0,131072,1048576
20180303031356,10.0.0.2,43098,10.0.0.1,5001,3,38.0-39.0,131072,1048576
20180303031356,10.0.0.2,43098,10.0.0.1,5001,3,39.0-40.0,0,0
20180303031358,10.0.0.2,43098,10.0.0.1,5001,3,40.0-41.0,131072,1048576
20180303031359,10.0.0.2,43098,10.0.0.1,5001,3,41.0-42.0,131072,1048576
20180303031401,10.0.0.2,43098,10.0.0.1,5001,3,42.0-43.0,131072,1048576
20180303031401,10.0.0.2,43098,10.0.0.1,5001,3,43.0-44.0,0,0
20180303031404,10.0.0.2,43098,10.0.0.1,5001,3,44.0-45.0,131072,1048576
20180303031406,10.0.0.2,43098,10.0.0.1,5001,3,45.0-46.0,131072,1048576
20180303031406,10.0.0.2,43098,10.0.0.1,5001,3,46.0-47.0,0,0
20180303031406,10.0.0.2,43098,10.0.0.1,5001,3,47.0-48.0,0,0
20180303031406,10.0.0.2,43098,10.0.0.1,5001,3,48.0-49.0,0,0
20180303031408,10.0.0.2,43098,10.0.0.1,5001,3,49.0-50.0,131072,1048576
20180303031408,10.0.0.2,43098,10.0.0.1,5001,3,50.0-51.0,0,0
20180303031410,10.0.0.2,43098,10.0.0.1,5001,3,51.0-52.0,131072,1048576
20180303031410,10.0.0.2,43098,10.0.0.1,5001,3,52.0-53.0,0,0
20180303031412,10.0.0.2,43098,10.0.0.1,5001,3,53.0-54.0,131072,1048576
20180303031413,10.0.0.2,43098,10.0.0.1,5001,3,54.0-55.0,131072,1048576
20180303031413,10.0.0.2,43098,10.0.0.1,5001,3,55.0-56.0,0,0
20180303031415,10.0.0.2,43098,10.0.0.1,5001,3,56.0-57.0,131072,1048576
20180303031415,10.0.0.2,43098,10.0.0.1,5001,3,57.0-58.0,0,0
20180303031417,10.0.0.2,43098,10.0.0.1,5001,3,58.0-59.0,131072,1048576
20180303031417,10.0.0.2,43098,10.0.0.1,5001,3,59.0-60.0,0,0
20180303031417,10.0.0.2,43098,10.0.0.1,5001,3,0.0-62.3,6422528,825204
