1520064722,s5,0.00,0.00,0.00,0,0,0.00,0.00,0.00,0,0,0.00,0.00,0,0
1520064722,eth0,0.00,0.00,0.00,0,0,0.00,0.00,0.00,0,0,0.00,0.00,0,0
1520064722,s2,0.00,0.00,0.00,0,0,0.00,0.00,0.00,0,0,0.00,0.00,0,0
1520064722,s2-eth2,0.00,0.00,0.00,0,0,0.00,0.00,0.00,0,0,0.00,0.00,0,0
1520064722,s2-eth1,0.00,0.00,0.00,0,0,0.00,0.00,0.00,0,0,0.00,0.00,0,0
1520064722,lo,0.00,0.00,0.00,0,0,0.00,0.00,0.00,0,0,0.00,0.00,0,0
1520064722,s4,0.00,0.00,0.00,0,0,0.00,0.00,0.00,0,0,0.00,0.00,0,0
1520064722,total,0.00,0.00,0.00,0,0,0.00,0.00,0.00,0,0,0.00,0.00,0,0
1520064723,s5,0.00,0.00,0.00,0,0,0.00,0.00,0.00,0,0,0.00,0.00,0,0
1520064723,eth0,0.00,0.00,0.00,0,0,0.00,0.00,0.00,0,0,0.00,0.00,0,0
1520064723,s2,0.00,0.00,0.00,0,0,0.00,0.00,0.00,0,0,0.00,0.00,0,0
1520064723,s2-eth2,8948.00,223144.00,232092.00,223144,8948,118.00,112.00,230.00,112,118,0.00,0.00,0,0
1520064723,s2-eth1,245524.00,8948.00,254472.00,8948,245524,122.00,118.00,240.00,118,122,0.00,0.00,0,0
1520064723,lo,0.00,0.00,0.00,0,0,0.00,0.00,0.00,0,0,0.00,0.00,0,0
1520064723,s4,0.00,0.00,0.00,0,0,0.00,0.00,0.00,0,0,0.00,0.00,0,0
1520064723,total,254472.00,232092.00,486564.00,232092,254472,240.00,230.00,470.00,230,240,0.00,0.00,0,0
1520064724,s5,0.00,0.00,0.00,0,0,0.00,0.00,0.00,0,0,0.00,0.00,0,0
1520064724,eth0,0.00,0.00,0.00,0,0,0.00,0.00,0.00,0,0,0.00,0.00,0,0
1520064724,s2,0.00,0.00,0.00,0,0,0.00,0.00,0.00,0,0,0.00,0.00,0,0
1520064724,s2-eth2,5034.00,201944.00,206978.00,201944,5034,73.00,76.00,149.00,76,73,0.00,0.00,0,0
1520064724,s2-eth1,213660.00,5034.00,218694.00,5034,213660,78.00,73.00,151.00,73,78,0.00,0.00,0,0
1520064724,lo,0.00,0.00,0.00,0,0,0.00,0.00,0.00,0,0,0.00,0.00,0,0
1520064724,s4,0.00,0.00,0.00,0,0,0.00,0.00,0.00,0,0,0.00,0.00,0,0
1520064724,total,218694.00,206978.00,425672.00,206978,218694,151.00,149.00,300.00,149,151,0.00,0.00,0,0
1520064725,s5,0.00,0.00,0.00,0,0,0.00,0.00,0.00,0,0,0.00,0.00,0,0
1520064725,eth0,0.00,0.00,0.00,0,0,0.00,0.00,0.00,0,0,0.00,0.00,0,0
1520064725,s2,0.00,0.00,0.00,0,0,0.00,0.00,0.00,0,0,0.00,0.00,0,0
1520064725,s2-eth2,4176.00,151656.00,155832.00,151656,4176,60.00,60.00,120.00,60,60,0.00,0.00,0,0
1520064725,s2-eth1,139940.00,4176.00,144116.00,4176,139940,58.00,60.00,118.00,60,58,0.00,0.00,0,0
1520064725,lo,0.00,0.00,0.00,0,0,0.00,0.00,0.00,0,0,0.00,0.00,0,0
1520064725,s4,0.00,0.00,0.00,0,0,0.00,0.00,0.00,0,0,0.00,0.00,0,0
1520064725,total,144116.00,155832.00,299948.00,155832,144116,118.00,120.00,238.00,120,118,0.00,0.00,0,0
1520064726,s5,0.00,0.00,0.00,0,0,0.00,0.00,0.00,0,0,0.00,0.00,0,0
1520064726,eth0,0.00,0.00,0.00,0,0,0.00,0.00,0.00,0,0,0.00,0.00,0,0
1520064726,s2,0.00,0.00,0.00,0,0,0.00,0.00,0.00,0,0,0.00,0.00,0,0
1520064726,s2-eth2,3066.00,118876.00,121942.00,118876,3066,45.00,46.00,91.00,46,45,0.00,0.00,0,0
1520064726,s2-eth1,124800.00,3066.00,127866.00,3066,124800,48.00,45.00,93.00,45,48,0.00,0.00,0,0
1520064726,lo,0.00,0.00,0.00,0,0,0.00,0.00,0.00,0,0,0.00,0.00,0,0
1520064726,s4,0.00,0.00,0.00,0,0,0.00,0.00,0.00,0,0,0.00,0.00,0,0
1520064726,total,127866.00,121942.00,249808.00,121942,127866,93.00,91.00,184.00,91,93,0.00,0.00,0,0
1520064727,s5,0.00,0.00,0.00,0,0,0.00,0.00,0.00,0,0,0.00,0.00,0,0
1520064727,eth0,0.00,0.00,0.00,0,0,0.00,0.00,0.00,0,0,0.00,0.00,0,0
1520064727,s2,0.00,0.00,0.00,0,0,0.00,0.00,0.00,0,0,0.00,0.00,0,0
1520064727,s2-eth2,3338.66,148413.59,151752.25,148562,3342,48.95,56.94,105.89,57,49,0.00,0.00,0,0
1520064727,s2-eth1,139272.73,3338.66,142611.39,3342,139412,49.95,48.95,98.90,49,50,0.00,0.00,0,0
1520064727,lo,515.48,515.48,1030.97,516,516,8.99,8.99,17.98,9,9,0.00,0.00,0,0
1520064727,s4,0.00,0.00,0.00,0,0,0.00,0.00,0.00,0,0,0.00,0.00,0,0
1520064727,total,143126.88,152267.73,295394.62,152420,143270,107.89,114.89,222.78,115,108,0.00,0.00,0,0
1520064728,s5,0.00,0.00,0.00,0,0,0.00,0.00,0.00,0,0,0.00,0.00,0,0
1520064728,eth0,0.00,0.00,0.00,0,0,0.00,0.00,0.00,0,0,0.00,0.00,0,0
1520064728,s2,0.00,0.00,0.00,0,0,0.00,0.00,0.00,0,0,0.00,0.00,0,0
1520064728,s2-eth2,3390.00,90902.00,94292.00,90902,3390,43.00,39.00,82.00,39,43,0.00,0.00,0,0
1520064728,s2-eth1,92548.00,3048.00,95596.00,3048,92548,42.00,42.00,84.00,42,42,0.00,0.00,0,0
1520064728,lo,0.00,0.00,0.00,0,0,0.00,0.00,0.00,0,0,0.00,0.00,0,0
1520064728,s4,0.00,0.00,0.00,0,0,0.00,0.00,0.00,0,0,0.00,0.00,0,0
1520064728,total,95938.00,93950.00,189888.00,93950,95938,85.00,81.00,166.00,81,85,0.00,0.00,0,0
1520064729,s5,0.00,0.00,0.00,0,0,0.00,0.00,0.00,0,0,0.00,0.00,0,0
1520064729,eth0,0.00,0.00,0.00,0,0,0.00,0.00,0.00,0,0,0.00,0.00,0,0
1520064729,s2,0.00,0.00,0.00,0,0,0.00,0.00,0.00,0,0,0.00,0.00,0,0
1520064729,s2-eth2,2112.00,97746.00,99858.00,97746,2112,32.00,33.00,65.00,33,32,0.00,0.00,0,0
1520064729,s2-eth1,94784.00,2112.00,96896.00,2112,94784,32.00,32.00,64.00,32,32,0.00,0.00,0,0
1520064729,lo,0.00,0.00,0.00,0,0,0.00,0.00,0.00,0,0,0.00,0.00,0,0
1520064729,s4,0.00,0.00,0.00,0,0,0.00,0.00,0.00,0,0,0.00,0.00,0,0
1520064729,total,96896.00,99858.00,196754.00,99858,96896,64.00,65.00,129.00,65,64,0.00,0.00,0,0
1520064730,s5,0.00,0.00,0.00,0,0,0.00,0.00,0.00,0,0,0.00,0.00,0,0
1520064730,eth0,0.00,0.00,0.00,0,0,0.00,0.00,0.00,0,0,0.00,0.00,0,0
1520064730,s2,0.00,0.00,0.00,0,0,0.00,0.00,0.00,0,0,0.00,0.00,0,0
1520064730,s2-eth2,2376.00,109594.00,111970.00,109594,2376,36.00,37.00,73.00,37,36,0.00,0.00,0,0
1520064730,s2-eth1,112556.00,2376.00,114932.00,2376,112556,38.00,36.00,74.00,36,38,0.00,0.00,0,0
1520064730,lo,0.00,0.00,0.00,0,0,0.00,0.00,0.00,0,0,0.00,0.00,0,0
1520064730,s4,0.00,0.00,0.00,0,0,0.00,0.00,0.00,0,0,0.00,0.00,0,0
1520064730,total,114932.00,111970.00,226902.00,111970,114932,74.00,73.00,147.00,73,74,0.00,0.00,0,0
1520064731,s5,0.00,0.00,0.00,0,0,0.00,0.00,0.00,0,0,0.00,0.00,0,0
1520064731,eth0,0.00,0.00,0.00,0,0,0.00,0.00,0.00,0,0,0.00,0.00,0,0
1520064731,s2,0.00,0.00,0.00,0,0,0.00,0.00,0.00,0,0,0.00,0.00,0,0
1520064731,s2-eth2,2835.16,130197.80,133032.97,130328,2838,42.96,43.96,86.91,44,43,0.00,0.00,0,0
1520064731,s2-eth1,127238.77,2835.16,130073.93,2838,127366,42.96,42.96,85.91,43,43,0.00,0.00,0,0
1520064731,lo,0.00,0.00,0.00,0,0,0.00,0.00,0.00,0,0,0.00,0.00,0,0
1520064731,s4,0.00,0.00,0.00,0,0,0.00,0.00,0.00,0,0,0.00,0.00,0,0
1520064731,total,130073.93,133032.97,263106.91,133166,130204,85.91,86.91,172.83,87,86,0.00,0.00,0,0
1520064732,s5,0.00,0.00,0.00,0,0,0.00,0.00,0.00,0,0,0.00,0.00,0,0
1520064732,eth0,0.00,0.00,0.00,0,0,0.00,0.00,0.00,0,0,0.00,0.00,0,0
1520064732,s2,0.00,0.00,0.00,0,0,0.00,0.00,0.00,0,0,0.00,0.00,0,0
1520064732,s2-eth2,3432.00,165872.00,169304.00,165872,3432,52.00,56.00,108.00,56,52,0.00,0.00,0,0
1520064732,s2-eth1,159948.00,3432.00,163380.00,3432,159948,54.00,52.00,106.00,52,54,0.00,0.00,0,0
1520064732,lo,516.00,516.00,1032.00,516,516,9.00,9.00,18.00,9,9,0.00,0.00,0,0
1520064732,s4,0.00,0.00,0.00,0,0,0.00,0.00,0.00,0,0,0.00,0.00,0,0
1520064732,total,163896.00,169820.00,333716.00,169820,163896,115.00,117.00,232.00,117,115,0.00,0.00,0,0
1520064733,s5,0.00,0.00,0.00,0,0,0.00,0.00,0.00,0,0,0.00,0.00,0,0
1520064733,eth0,0.00,0.00,0.00,0,0,0.00,0.00,0.00,0,0,0.00,0.00,0,0
1520064733,s2,0.00,0.00,0.00,0,0,0.00,0.00,0.00,0,0,0.00,0.00,0,0
1520064733,s2-eth2,4908.00,247426.00,252334.00,247426,4908,74.00,85.00,159.00,85,74,0.00,0.00,0,0
1520064733,s2-eth1,231036.00,4986.00,236022.00,4986,231036,78.00,75.00,153.00,75,78,0.00,0.00,0,0
1520064733,lo,0.00,0.00,0.00,0,0,0.00,0.00,0.00,0,0,0.00,0.00,0,0
1520064733,s4,0.00,0.00,0.00,0,0,0.00,0.00,0.00,0,0,0.00,0.00,0,0
1520064733,total,235944.00,252412.00,488356.00,252412,235944,152.00,160.00,312.00,160,152,0.00,0.00,0,0
1520064734,s5,0.00,0.00,0.00,0,0,0.00,0.00,0.00,0,0,0.00,0.00,0,0
1520064734,eth0,0.00,0.00,0.00,0,0,0.00,0.00,0.00,0,0,0.00,0.00,0,0
1520064734,s2,0.00,0.00,0.00,0,0,0.00,0.00,0.00,0,0,0.00,0.00,0,0
1520064734,s2-eth2,6310.69,244945.06,251255.75,245190,6317,91.91,94.91,186.81,95,92,0.00,0.00,0,0
1520064734,s2-eth1,243671.33,6125.87,249797.20,6132,243915,96.90,89.91,186.81,90,97,0.00,0.00,0,0
1520064734,lo,0.00,0.00,0.00,0,0,0.00,0.00,0.00,0,0,0.00,0.00,0,0
1520064734,s4,0.00,0.00,0.00,0,0,0.00,0.00,0.00,0,0,0.00,0.00,0,0
1520064734,total,249982.03,251070.94,501052.97,251322,250232,188.81,184.82,373.63,185,189,0.00,0.00,0,0
1520064735,s5,0.00,0.00,0.00,0,0,0.00,0.00,0.00,0,0,0.00,0.00,0,0
1520064735,eth0,0.00,0.00,0.00,0,0,0.00,0.00,0.00,0,0,0.00,0.00,0,0
1520064735,s2,0.00,0.00,0.00,0,0,0.00,0.00,0.00,0,0,0.00,0.00,0,0
1520064735,s2-eth2,5868.00,234856.00,240724.00,234856,5868,86.00,92.00,178.00,92,86,0.00,0.00,0,0
1520064735,s2-eth1,240780.00,5868.00,246648.00,5868,240780,94.00,86.00,180.00,86,94,0.00,0.00,0,0
1520064735,lo,0.00,0.00,0.00,0,0,0.00,0.00,0.00,0,0,0.00,0.00,0,0
1520064735,s4,0.00,0.00,0.00,0,0,0.00,0.00,0.00,0,0,0.00,0.00,0,0
1520064735,total,246648.00,240724.00,487372.00,240724,246648,180.00,178.00,358.00,178,180,0.00,0.00,0,0
1520064736,s5,0.00,0.00,0.00,0,0,0.00,0.00,0.00,0,0,0.00,0.00,0,0
1520064736,eth0,0.00,0.00,0.00,0,0,0.00,0.00,0.00,0,0,0.00,0.00,0,0
1520064736,s2,0.00,0.00,0.00,0,0,0.00,0.00,0.00,0,0,0.00,0.00,0,0
1520064736,s2-eth2,5508.49,219562.44,225070.94,219782,5514,80.92,82.92,163.84,83,81,0.00,0.00,0,0
1520064736,s2-eth1,213986.02,5508.49,219494.52,5514,214200,81.92,80.92,162.84,81,82,0.00,0.00,0,0
1520064736,lo,0.00,0.00,0.00,0,0,0.00,0.00,0.00,0,0,0.00,0.00,0,0
1520064736,s4,0.00,0.00,0.00,0,0,0.00,0.00,0.00,0,0,0.00,0.00,0,0
1520064736,total,219494.52,225070.94,444565.44,225296,219714,162.84,163.84,326.67,164,163,0.00,0.00,0,0
1520064737,s5,0.00,0.00,0.00,0,0,0.00,0.00,0.00,0,0,0.00,0.00,0,0
1520064737,eth0,0.00,0.00,0.00,0,0,0.00,0.00,0.00,0,0,0.00,0.00,0,0
1520064737,s2,0.00,0.00,0.00,0,0,0.00,0.00,0.00,0,0,0.00,0.00,0,0
1520064737,s2-eth2,4854.00,166532.00,171386.00,166532,4854,69.00,66.00,135.00,66,69,0.00,0.00,0,0
1520064737,s2-eth1,169494.00,4854.00,174348.00,4854,169494,67.00,69.00,136.00,69,67,0.00,0.00,0,0
1520064737,lo,516.00,516.00,1032.00,516,516,9.00,9.00,18.00,9,9,0.00,0.00,0,0
1520064737,s4,0.00,0.00,0.00,0,0,0.00,0.00,0.00,0,0,0.00,0.00,0,0
1520064737,total,174864.00,171902.00,346766.00,171902,174864,145.00,144.00,289.00,144,145,0.00,0.00,0,0
1520064738,s5,0.00,0.00,0.00,0,0,0.00,0.00,0.00,0,0,0.00,0.00,0,0
1520064738,eth0,0.00,0.00,0.00,0,0,0.00,0.00,0.00,0,0,0.00,0.00,0,0
1520064738,s2,0.00,0.00,0.00,0,0,0.00,0.00,0.00,0,0,0.00,0.00,0,0
1520064738,s2-eth2,3102.00,145138.00,148240.00,145138,3102,47.00,49.00,96.00,49,47,0.00,0.00,0,0
1520064738,s2-eth1,154024.00,3102.00,157126.00,3102,154024,52.00,47.00,99.00,47,52,0.00,0.00,0,0
1520064738,lo,0.00,0.00,0.00,0,0,0.00,0.00,0.00,0,0,0.00,0.00,0,0
1520064738,s4,0.00,0.00,0.00,0,0,0.00,0.00,0.00,0,0,0.00,0.00,0,0
1520064738,total,157126.00,148240.00,305366.00,148240,157126,99.00,96.00,195.00,96,99,0.00,0.00,0,0
1520064739,s5,0.00,0.00,0.00,0,0,0.00,0.00,0.00,0,0,0.00,0.00,0,0
1520064739,eth0,0.00,0.00,0.00,0,0,0.00,0.00,0.00,0,0,0.00,0.00,0,0
1520064739,s2,0.00,0.00,0.00,0,0,0.00,0.00,0.00,0,0,0.00,0.00,0,0
1520064739,s2-eth2,3564.00,165872.00,169436.00,165872,3564,54.00,56.00,110.00,56,54,0.00,0.00,0,0
1520064739,s2-eth1,154024.00,3564.00,157588.00,3564,154024,52.00,54.00,106.00,54,52,0.00,0.00,0,0
1520064739,lo,0.00,0.00,0.00,0,0,0.00,0.00,0.00,0,0,0.00,0.00,0,0
1520064739,s4,0.00,0.00,0.00,0,0,0.00,0.00,0.00,0,0,0.00,0.00,0,0
1520064739,total,157588.00,169436.00,327024.00,169436,157588,106.00,110.00,216.00,110,106,0.00,0.00,0,0
1520064740,s5,0.00,0.00,0.00,0,0,0.00,0.00,0.00,0,0,0.00,0.00,0,0
1520064740,eth0,0.00,0.00,0.00,0,0,0.00,0.00,0.00,0,0,0.00,0.00,0,0
1520064740,s2,0.00,0.00,0.00,0,0,0.00,0.00,0.00,0,0,0.00,0.00,0,0
1520064740,s2-eth2,3288.00,136450.00,139738.00,136450,3288,48.00,49.00,97.00,49,48,0.00,0.00,0,0
1520064740,s2-eth1,142374.00,3288.00,145662.00,3288,142374,51.00,48.00,99.00,48,51,0.00,0.00,0,0
1520064740,lo,0.00,0.00,0.00,0,0,0.00,0.00,0.00,0,0,0.00,0.00,0,0
1520064740,s4,0.00,0.00,0.00,0,0,0.00,0.00,0.00,0,0,0.00,0.00,0,0
1520064740,total,145662.00,139738.00,285400.00,139738,145662,99.00,97.00,196.00,97,99,0.00,0.00,0,0
1520064741,s5,0.00,0.00,0.00,0,0,0.00,0.00,0.00,0,0,0.00,0.00,0,0
1520064741,eth0,0.00,0.00,0.00,0,0,0.00,0.00,0.00,0,0,0.00,0.00,0,0
1520064741,s2,0.00,0.00,0.00,0,0,0.00,0.00,0.00,0,0,0.00,0.00,0,0
1520064741,s2-eth2,3442.00,122300.00,125742.00,122300,3442,47.00,54.00,101.00,54,47,0.00,0.00,0,0
1520064741,s2-eth1,119206.00,3442.00,122648.00,3442,119206,51.00,47.00,98.00,47,51,0.00,0.00,0,0
1520064741,lo,0.00,0.00,0.00,0,0,0.00,0.00,0.00,0,0,0.00,0.00,0,0
1520064741,s4,0.00,0.00,0.00,0,0,0.00,0.00,0.00,0,0,0.00,0.00,0,0
1520064741,total,122648.00,125742.00,248390.00,125742,122648,98.00,101.00,199.00,101,98,0.00,0.00,0,0
1520064742,s5,0.00,0.00,0.00,0,0,0.00,0.00,0.00,0,0,0.00,0.00,0,0
1520064742,eth0,0.00,0.00,0.00,0,0,0.00,0.00,0.00,0,0,0.00,0.00,0,0
1520064742,s2,0.00,0.00,0.00,0,0,0.00,0.00,0.00,0,0,0.00,0.00,0,0
1520064742,s2-eth2,2394.00,50948.00,53342.00,50948,2394,29.00,26.00,55.00,26,29,0.00,0.00,0,0
1520064742,s2-eth1,39166.00,2052.00,41218.00,2052,39166,23.00,28.00,51.00,28,23,0.00,0.00,0,0
1520064742,lo,516.00,516.00,1032.00,516,516,9.00,9.00,18.00,9,9,0.00,0.00,0,0
1520064742,s4,0.00,0.00,0.00,0,0,0.00,0.00,0.00,0,0,0.00,0.00,0,0
1520064742,total,42076.00,53516.00,95592.00,53516,42076,61.00,63.00,124.00,63,61,0.00,0.00,0,0
1520064743,s5,0.00,0.00,0.00,0,0,0.00,0.00,0.00,0,0,0.00,0.00,0,0
1520064743,eth0,0.00,0.00,0.00,0,0,0.00,0.00,0.00,0,0,0.00,0.00,0,0
1520064743,s2,0.00,0.00,0.00,0,0,0.00,0.00,0.00,0,0,0.00,0.00,0,0
1520064743,s2-eth2,923.08,44385.62,45308.69,44430,924,13.99,14.99,28.97,15,14,0.00,0.00,0,0
1520064743,s2-eth1,50303.70,923.08,51226.77,924,50354,16.98,13.99,30.97,14,17,0.00,0.00,0,0
1520064743,lo,0.00,0.00,0.00,0,0,0.00,0.00,0.00,0,0,0.00,0.00,0,0
1520064743,s4,0.00,0.00,0.00,0,0,0.00,0.00,0.00,0,0,0.00,0.00,0,0
1520064743,total,51226.77,45308.69,96535.47,45354,51278,30.97,28.97,59.94,29,31,0.00,0.00,0,0
1520064744,s5,0.00,0.00,0.00,0,0,0.00,0.00,0.00,0,0,0.00,0.00,0,0
1520064744,eth0,0.00,0.00,0.00,0,0,0.00,0.00,0.00,0,0,0.00,0.00,0,0
1520064744,s2,0.00,0.00,0.00,0,0,0.00,0.00,0.00,0,0,0.00,0.00,0,0
1520064744,s2-eth2,1222.78,50435.57,51658.34,50486,1224,17.98,18.98,36.96,19,18,0.00,0.00,0,0
1520064744,s2-eth1,41558.44,1222.78,42781.22,1224,41600,15.98,17.98,33.97,18,16,0.00,0.00,0,0
1520064744,lo,0.00,0.00,0.00,0,0,0.00,0.00,0.00,0,0,0.00,0.00,0,0
1520064744,s4,0.00,0.00,0.00,0,0,0.00,0.00,0.00,0,0,0.00,0.00,0,0
1520064744,total,42781.22,51658.34,94439.56,51710,42824,33.97,36.96,70.93,37,34,0.00,0.00,0,0
1520064745,s5,0.00,0.00,0.00,0,0,0.00,0.00,0.00,0,0,0.00,0.00,0,0
1520064745,eth0,0.00,0.00,0.00,0,0,0.00,0.00,0.00,0,0,0.00,0.00,0,0
1520064745,s2,0.00,0.00,0.00,0,0,0.00,0.00,0.00,0,0,0.00,0.00,0,0
1520064745,s2-eth2,1188.00,56278.00,57466.00,56278,1188,18.00,19.00,37.00,19,18,0.00,0.00,0,0
1520064745,s2-eth1,59240.00,1188.00,60428.00,1188,59240,20.00,18.00,38.00,18,20,0.00,0.00,0,0
1520064745,lo,0.00,0.00,0.00,0,0,0.00,0.00,0.00,0,0,0.00,0.00,0,0
1520064745,s4,0.00,0.00,0.00,0,0,0.00,0.00,0.00,0,0,0.00,0.00,0,0
1520064745,total,60428.00,57466.00,117894.00,57466,60428,38.00,37.00,75.00,37,38,0.00,0.00,0,0
1520064746,s5,0.00,0.00,0.00,0,0,0.00,0.00,0.00,0,0,0.00,0.00,0,0
1520064746,eth0,0.00,0.00,0.00,0,0,0.00,0.00,0.00,0,0,0.00,0.00,0,0
1520064746,s2,0.00,0.00,0.00,0,0,0.00,0.00,0.00,0,0,0.00,0.00,0,0
1520064746,s2-eth2,1188.00,56278.00,57466.00,56278,1188,18.00,19.00,37.00,19,18,0.00,0.00,0,0
1520064746,s2-eth1,53316.00,1188.00,54504.00,1188,53316,18.00,18.00,36.00,18,18,0.00,0.00,0,0
1520064746,lo,0.00,0.00,0.00,0,0,0.00,0.00,0.00,0,0,0.00,0.00,0,0
1520064746,s4,0.00,0.00,0.00,0,0,0.00,0.00,0.00,0,0,0.00,0.00,0,0
1520064746,total,54504.00,57466.00,111970.00,57466,54504,36.00,37.00,73.00,37,36,0.00,0.00,0,0
1520064747,s5,0.00,0.00,0.00,0,0,0.00,0.00,0.00,0,0,0.00,0.00,0,0
1520064747,eth0,0.00,0.00,0.00,0,0,0.00,0.00,0.00,0,0,0.00,0.00,0,0
1520064747,s2,0.00,0.00,0.00,0,0,0.00,0.00,0.00,0,0,0.00,0.00,0,0
1520064747,s2-eth2,1582.42,76935.07,78517.48,77012,1584,23.98,25.97,49.95,26,24,0.00,0.00,0,0
1520064747,s2-eth1,76935.07,1582.42,78517.48,1584,77012,25.97,23.98,49.95,24,26,0.00,0.00,0,0
1520064747,lo,515.48,515.48,1030.97,516,516,8.99,8.99,17.98,9,9,0.00,0.00,0,0
1520064747,s4,0.00,0.00,0.00,0,0,0.00,0.00,0.00,0,0,0.00,0.00,0,0
1520064747,total,79032.97,79032.97,158065.94,79112,79112,58.94,58.94,117.88,59,59,0.00,0.00,0,0
1520064748,s5,0.00,0.00,0.00,0,0,0.00,0.00,0.00,0,0,0.00,0.00,0,0
1520064748,eth0,0.00,0.00,0.00,0,0,0.00,0.00,0.00,0,0,0.00,0.00,0,0
1520064748,s2,0.00,0.00,0.00,0,0,0.00,0.00,0.00,0,0,0.00,0.00,0,0
1520064748,s2-eth2,2046.00,97746.00,99792.00,97746,2046,31.00,33.00,64.00,33,31,0.00,0.00,0,0
1520064748,s2-eth1,91822.00,2046.00,93868.00,2046,91822,31.00,31.00,62.00,31,31,0.00,0.00,0,0
1520064748,lo,0.00,0.00,0.00,0,0,0.00,0.00,0.00,0,0,0.00,0.00,0,0
1520064748,s4,0.00,0.00,0.00,0,0,0.00,0.00,0.00,0,0,0.00,0.00,0,0
1520064748,total,93868.00,99792.00,193660.00,99792,93868,62.00,64.00,126.00,64,62,0.00,0.00,0,0
1520064749,s5,0.00,0.00,0.00,0,0,0.00,0.00,0.00,0,0,0.00,0.00,0,0
1520064749,eth0,0.00,0.00,0.00,0,0,0.00,0.00,0.00,0,0,0.00,0.00,0,0
1520064749,s2,0.00,0.00,0.00,0,0,0.00,0.00,0.00,0,0,0.00,0.00,0,0
1520064749,s2-eth2,3300.00,142440.00,145740.00,142440,3300,48.00,52.00,100.00,52,48,0.00,0.00,0,0
1520064749,s2-eth1,148364.00,3300.00,151664.00,3300,148364,54.00,48.00,102.00,48,54,0.00,0.00,0,0
1520064749,lo,0.00,0.00,0.00,0,0,0.00,0.00,0.00,0,0,0.00,0.00,0,0
1520064749,s4,0.00,0.00,0.00,0,0,0.00,0.00,0.00,0,0,0.00,0.00,0,0
1520064749,total,151664.00,145740.00,297404.00,145740,151664,102.00,100.00,202.00,100,102,0.00,0.00,0,0
1520064750,s5,0.00,0.00,0.00,0,0,0.00,0.00,0.00,0,0,0.00,0.00,0,0
1520064750,eth0,608.00,736.00,1344.00,736,608,8.00,8.00,16.00,8,8,0.00,0.00,0,0
1520064750,s2,0.00,0.00,0.00,0,0,0.00,0.00,0.00,0,0,0.00,0.00,0,0
1520064750,s2-eth2,3884.00,124866.00,128750.00,124866,3884,52.00,49.00,101.00,49,52,0.00,0.00,0,0
1520064750,s2-eth1,107624.00,3342.00,110966.00,3342,107624,46.00,49.00,95.00,49,46,0.00,0.00,0,0
1520064750,lo,1120.00,1120.00,2240.00,1120,1120,16.00,16.00,32.00,16,16,0.00,0.00,0,0
1520064750,s4,0.00,0.00,0.00,0,0,0.00,0.00,0.00,0,0,0.00,0.00,0,0
1520064750,total,113236.00,130064.00,243300.00,130064,113236,122.00,122.00,244.00,122,122,0.00,0.00,0,0
1520064751,s5,0.00,0.00,0.00,0,0,0.00,0.00,0.00,0,0,0.00,0.00,0,0
1520064751,eth0,303.70,367.63,671.33,368,304,4.00,4.00,7.99,4,4,0.00,0.00,0,0
1520064751,s2,0.00,0.00,0.00,0,0,0.00,0.00,0.00,0,0,0.00,0.00,0,0
1520064751,s2-eth2,2478.00,111174.00,113652.00,111174,2478,37.00,39.00,76.00,39,37,0.00,0.00,0,0
1520064751,s2-eth1,124045.00,2400.00,126445.00,2400,124045,50.00,36.00,86.00,36,50,0.00,0.00,0,0
1520064751,lo,560.00,560.00,1120.00,560,560,8.00,8.00,16.00,8,8,0.00,0.00,0,0
1520064751,s4,0.00,0.00,0.00,0,0,0.00,0.00,0.00,0,0,0.00,0.00,0,0
1520064751,total,127387.00,114502.00,241889.00,114502,127387,99.00,87.00,186.00,87,99,0.00,0.00,0,0
1520064752,s5,0.00,0.00,0.00,0,0,0.00,0.00,0.00,0,0,0.00,0.00,0,0
1520064752,eth0,152.00,184.00,336.00,184,152,2.00,2.00,4.00,2,2,0.00,0.00,0,0
1520064752,s2,0.00,0.00,0.00,0,0,0.00,0.00,0.00,0,0,0.00,0.00,0,0
1520064752,s2-eth2,4746.00,93732.00,98478.00,93732,4746,49.00,38.00,87.00,38,49,0.00,0.00,0,0
1520064752,s2-eth1,83184.00,2640.00,85824.00,2640,83184,40.00,38.00,78.00,38,40,0.00,0.00,0,0
1520064752,lo,796.00,796.00,1592.00,796,796,13.00,13.00,26.00,13,13,0.00,0.00,0,0
1520064752,s4,0.00,0.00,0.00,0,0,0.00,0.00,0.00,0,0,0.00,0.00,0,0
1520064752,total,88878.00,97352.00,186230.00,97352,88878,104.00,91.00,195.00,91,104,0.00,0.00,0,0
1520064753,s5,0.00,0.00,0.00,0,0,0.00,0.00,0.00,0,0,0.00,0.00,0,0
1520064753,eth0,152.00,184.00,336.00,184,152,2.00,2.00,4.00,2,2,0.00,0.00,0,0
1520064753,s2,0.00,0.00,0.00,0,0,0.00,0.00,0.00,0,0,0.00,0.00,0,0
1520064753,s2-eth2,2808.00,83200.00,86008.00,83200,2808,35.00,32.00,67.00,32,35,0.00,0.00,0,0
1520064753,s2-eth1,89980.00,2172.00,92152.00,2172,89980,37.00,32.00,69.00,32,37,0.00,0.00,0,0
1520064753,lo,280.00,280.00,560.00,280,280,4.00,4.00,8.00,4,4,0.00,0.00,0,0
1520064753,s4,0.00,0.00,0.00,0,0,0.00,0.00,0.00,0,0,0.00,0.00,0,0
1520064753,total,93220.00,85836.00,179056.00,85836,93220,78.00,70.00,148.00,70,78,0.00,0.00,0,0
1520064754,s5,0.00,0.00,0.00,0,0,0.00,0.00,0.00,0,0,0.00,0.00,0,0
1520064754,eth0,0.00,0.00,0.00,0,0,0.00,0.00,0.00,0,0,0.00,0.00,0,0
1520064754,s2,0.00,0.00,0.00,0,0,0.00,0.00,0.00,0,0,0.00,0.00,0,0
1520064754,s2-eth2,1891.11,62271.73,64162.84,62334,1893,23.98,22.98,46.95,23,24,0.00,0.00,0,0
1520064754,s2-eth1,56460.54,1564.44,58024.98,1566,56517,21.98,22.98,44.96,23,22,0.00,0.00,0,0
1520064754,lo,0.00,0.00,0.00,0,0,0.00,0.00,0.00,0,0,0.00,0.00,0,0
1520064754,s4,0.00,0.00,0.00,0,0,0.00,0.00,0.00,0,0,0.00,0.00,0,0
1520064754,total,58351.65,63836.16,122187.81,63900,58410,45.95,45.95,91.91,46,46,0.00,0.00,0,0
1520064755,s5,0.00,0.00,0.00,0,0,0.00,0.00,0.00,0,0,0.00,0.00,0,0
1520064755,eth0,59.88,59.88,119.76,60,60,1.00,1.00,2.00,1,1,0.00,0.00,0,0
1520064755,s2,0.00,0.00,0.00,0,0,0.00,0.00,0.00,0,0,0.00,0.00,0,0
1520064755,s2-eth2,2002.00,65231.54,67233.53,65362,2006,25.95,24.95,50.90,25,26,0.00,0.00,0,0
1520064755,s2-eth1,62938.12,1628.74,64566.87,1632,63064,26.95,23.95,50.90,24,27,0.00,0.00,0,0
1520064755,lo,0.00,0.00,0.00,0,0,0.00,0.00,0.00,0,0,0.00,0.00,0,0
1520064755,s4,0.00,0.00,0.00,0,0,0.00,0.00,0.00,0,0,0.00,0.00,0,0
1520064755,total,65064.94,66987.02,132051.95,67054,65130,53.95,49.95,103.90,50,54,0.00,0.00,0,0
1520064756,s5,0.00,0.00,0.00,0,0,0.00,0.00,0.00,0,0,0.00,0.00,0,0
1520064756,eth0,0.00,0.00,0.00,0,0,0.00,0.00,0.00,0,0,0.00,0.00,0,0
1520064756,s2,0.00,0.00,0.00,0,0,0.00,0.00,0.00,0,0,0.00,0.00,0,0
1520064756,s2-eth2,2239.00,59438.00,61677.00,59438,2239,25.00,23.00,48.00,23,25,0.00,0.00,0,0
1520064756,s2-eth1,59438.00,1500.00,60938.00,1500,59438,23.00,22.00,45.00,22,23,0.00,0.00,0,0
1520064756,lo,0.00,0.00,0.00,0,0,0.00,0.00,0.00,0,0,0.00,0.00,0,0
1520064756,s4,0.00,0.00,0.00,0,0,0.00,0.00,0.00,0,0,0.00,0.00,0,0
1520064756,total,61677.00,60938.00,122615.00,60938,61677,48.00,45.00,93.00,45,48,0.00,0.00,0,0
1520064757,s5,0.00,0.00,0.00,0,0,0.00,0.00,0.00,0,0,0.00,0.00,0,0
1520064757,eth0,0.00,0.00,0.00,0,0,0.00,0.00,0.00,0,0,0.00,0.00,0,0
1520064757,s2,0.00,0.00,0.00,0,0,0.00,0.00,0.00,0,0,0.00,0.00,0,0
1520064757,s2-eth2,1674.00,75630.00,77304.00,75630,1674,25.00,27.00,52.00,27,25,0.00,0.00,0,0
1520064757,s2-eth1,71088.00,1674.00,72762.00,1674,71088,24.00,25.00,49.00,25,24,0.00,0.00,0,0
1520064757,lo,516.00,516.00,1032.00,516,516,9.00,9.00,18.00,9,9,0.00,0.00,0,0
1520064757,s4,0.00,0.00,0.00,0,0,0.00,0.00,0.00,0,0,0.00,0.00,0,0
1520064757,total,73278.00,77820.00,151098.00,77820,73278,58.00,61.00,119.00,61,58,0.00,0.00,0,0
1520064758,s5,0.00,0.00,0.00,0,0,0.00,0.00,0.00,0,0,0.00,0.00,0,0
1520064758,eth0,0.00,0.00,0.00,0,0,0.00,0.00,0.00,0,0,0.00,0.00,0,0
1520064758,s2,0.00,0.00,0.00,0,0,0.00,0.00,0.00,0,0,0.00,0.00,0,0
1520064758,s2-eth2,1104.00,43114.00,44218.00,43114,1104,16.00,17.00,33.00,17,16,0.00,0.00,0,0
1520064758,s2-eth1,44801.00,1104.00,45905.00,1104,44801,20.00,16.00,36.00,16,20,0.00,0.00,0,0
1520064758,lo,0.00,0.00,0.00,0,0,0.00,0.00,0.00,0,0,0.00,0.00,0,0
1520064758,s4,0.00,0.00,0.00,0,0,0.00,0.00,0.00,0,0,0.00,0.00,0,0
1520064758,total,45905.00,44218.00,90123.00,44218,45905,36.00,33.00,69.00,33,36,0.00,0.00,0,0
1520064759,s5,0.00,0.00,0.00,0,0,0.00,0.00,0.00,0,0,0.00,0.00,0,0
1520064759,eth0,0.00,0.00,0.00,0,0,0.00,0.00,0.00,0,0,0.00,0.00,0,0
1520064759,s2,0.00,0.00,0.00,0,0,0.00,0.00,0.00,0,0,0.00,0.00,0,0
1520064759,s2-eth2,1079.00,32846.00,33925.00,32846,1079,15.00,15.00,30.00,15,15,0.00,0.00,0,0
1520064759,s2-eth1,24030.00,972.00,25002.00,972,24030,13.00,14.00,27.00,14,13,0.00,0.00,0,0
1520064759,lo,0.00,0.00,0.00,0,0,0.00,0.00,0.00,0,0,0.00,0.00,0,0
1520064759,s4,0.00,0.00,0.00,0,0,0.00,0.00,0.00,0,0,0.00,0.00,0,0
1520064759,total,25109.00,33818.00,58927.00,33818,25109,28.00,29.00,57.00,29,28,0.00,0.00,0,0
1520064760,s5,0.00,0.00,0.00,0,0,0.00,0.00,0.00,0,0,0.00,0.00,0,0
1520064760,eth0,0.00,0.00,0.00,0,0,0.00,0.00,0.00,0,0,0.00,0.00,0,0
1520064760,s2,0.00,0.00,0.00,0,0,0.00,0.00,0.00,0,0,0.00,0.00,0,0
1520064760,s2-eth2,862.00,35544.00,36406.00,35544,862,13.00,12.00,25.00,12,13,0.00,0.00,0,0
1520064760,s2-eth1,41810.00,792.00,42602.00,792,41810,15.00,12.00,27.00,12,15,0.00,0.00,0,0
1520064760,lo,0.00,0.00,0.00,0,0,0.00,0.00,0.00,0,0,0.00,0.00,0,0
1520064760,s4,0.00,0.00,0.00,0,0,0.00,0.00,0.00,0,0,0.00,0.00,0,0
1520064760,total,42672.00,36336.00,79008.00,36336,42672,28.00,24.00,52.00,24,28,0.00,0.00,0,0
1520064761,s5,0.00,0.00,0.00,0,0,0.00,0.00,0.00,0,0,0.00,0.00,0,0
1520064761,eth0,0.00,0.00,0.00,0,0,0.00,0.00,0.00,0,0,0.00,0.00,0,0
1520064761,s2,0.00,0.00,0.00,0,0,0.00,0.00,0.00,0,0,0.00,0.00,0,0
1520064761,s2-eth2,1254.00,59240.00,60494.00,59240,1254,19.00,20.00,39.00,20,19,0.00,0.00,0,0
1520064761,s2-eth1,50354.00,1254.00,51608.00,1254,50354,17.00,19.00,36.00,19,17,0.00,0.00,0,0
1520064761,lo,0.00,0.00,0.00,0,0,0.00,0.00,0.00,0,0,0.00,0.00,0,0
1520064761,s4,0.00,0.00,0.00,0,0,0.00,0.00,0.00,0,0,0.00,0.00,0,0
1520064761,total,51608.00,60494.00,112102.00,60494,51608,36.00,39.00,75.00,39,36,0.00,0.00,0,0
1520064762,s5,0.00,0.00,0.00,0,0,0.00,0.00,0.00,0,0,0.00,0.00,0,0
1520064762,eth0,0.00,0.00,0.00,0,0,0.00,0.00,0.00,0,0,0.00,0.00,0,0
1520064762,s2,0.00,0.00,0.00,0,0,0.00,0.00,0.00,0,0,0.00,0.00,0,0
1520064762,s2-eth2,1188.00,59240.00,60428.00,59240,1188,18.00,20.00,38.00,20,18,0.00,0.00,0,0
1520064762,s2-eth1,68126.00,1188.00,69314.00,1188,68126,23.00,18.00,41.00,18,23,0.00,0.00,0,0
1520064762,lo,516.00,516.00,1032.00,516,516,9.00,9.00,18.00,9,9,0.00,0.00,0,0
1520064762,s4,0.00,0.00,0.00,0,0,0.00,0.00,0.00,0,0,0.00,0.00,0,0
1520064762,total,69830.00,60944.00,130774.00,60944,69830,50.00,47.00,97.00,47,50,0.00,0.00,0,0
1520064763,s5,0.00,0.00,0.00,0,0,0.00,0.00,0.00,0,0,0.00,0.00,0,0
1520064763,eth0,0.00,0.00,0.00,0,0,0.00,0.00,0.00,0,0,0.00,0.00,0,0
1520064763,s2,0.00,0.00,0.00,0,0,0.00,0.00,0.00,0,0,0.00,0.00,0,0
1520064763,s2-eth2,2046.00,103670.00,105716.00,103670,2046,31.00,35.00,66.00,35,31,0.00,0.00,0,0
1520064763,s2-eth1,88860.00,2046.00,90906.00,2046,88860,30.00,31.00,61.00,31,30,0.00,0.00,0,0
1520064763,lo,0.00,0.00,0.00,0,0,0.00,0.00,0.00,0,0,0.00,0.00,0,0
1520064763,s4,0.00,0.00,0.00,0,0,0.00,0.00,0.00,0,0,0.00,0.00,0,0
1520064763,total,90906.00,105716.00,196622.00,105716,90906,61.00,66.00,127.00,66,61,0.00,0.00,0,0
1520064764,s5,0.00,0.00,0.00,0,0,0.00,0.00,0.00,0,0,0.00,0.00,0,0
1520064764,eth0,0.00,0.00,0.00,0,0,0.00,0.00,0.00,0,0,0.00,0.00,0,0
1520064764,s2,0.00,0.00,0.00,0,0,0.00,0.00,0.00,0,0,0.00,0.00,0,0
1520064764,s2-eth2,4308.00,166244.00,170552.00,166244,4308,58.00,62.00,120.00,62,58,0.00,0.00,0,0
1520064764,s2-eth1,160188.00,3966.00,164154.00,3966,160188,58.00,57.00,115.00,57,58,0.00,0.00,0,0
1520064764,lo,592.00,592.00,1184.00,592,592,6.00,6.00,12.00,6,6,0.00,0.00,0,0
1520064764,s4,0.00,0.00,0.00,0,0,0.00,0.00,0.00,0,0,0.00,0.00,0,0
1520064764,total,165088.00,170802.00,335890.00,170802,165088,122.00,125.00,247.00,125,122,0.00,0.00,0,0
1520064765,s5,0.00,0.00,0.00,0,0,0.00,0.00,0.00,0,0,0.00,0.00,0,0
1520064765,eth0,0.00,0.00,0.00,0,0,0.00,0.00,0.00,0,0,0.00,0.00,0,0
1520064765,s2,0.00,0.00,0.00,0,0,0.00,0.00,0.00,0,0,0.00,0.00,0,0
1520064765,s2-eth2,3956.04,157092.91,161048.95,157250,3960,57.94,56.94,114.89,57,58,0.00,0.00,0,0
1520064765,s2-eth1,154607.39,3956.04,158563.44,3960,154762,58.94,57.94,116.88,58,59,0.00,0.00,0,0
1520064765,lo,0.00,0.00,0.00,0,0,0.00,0.00,0.00,0,0,0.00,0.00,0,0
1520064765,s4,0.00,0.00,0.00,0,0,0.00,0.00,0.00,0,0,0.00,0.00,0,0
1520064765,total,158563.44,161048.95,319612.41,161210,158722,116.88,114.89,231.77,115,117,0.00,0.00,0,0
1520064766,s5,0.00,0.00,0.00,0,0,0.00,0.00,0.00,0,0,0.00,0.00,0,0
1520064766,eth0,0.00,0.00,0.00,0,0,0.00,0.00,0.00,0,0,0.00,0.00,0,0
1520064766,s2,0.00,0.00,0.00,0,0,0.00,0.00,0.00,0,0,0.00,0.00,0,0
1520064766,s2-eth2,3234.00,148100.00,151334.00,148100,3234,49.00,50.00,99.00,50,49,0.00,0.00,0,0
1520064766,s2-eth1,154131.00,3234.00,157365.00,3234,154131,53.00,49.00,102.00,49,53,0.00,0.00,0,0
1520064766,lo,0.00,0.00,0.00,0,0,0.00,0.00,0.00,0,0,0.00,0.00,0,0
1520064766,s4,0.00,0.00,0.00,0,0,0.00,0.00,0.00,0,0,0.00,0.00,0,0
1520064766,total,157365.00,151334.00,308699.00,151334,157365,102.00,99.00,201.00,99,102,0.00,0.00,0,0
1520064767,s5,0.00,0.00,0.00,0,0,0.00,0.00,0.00,0,0,0.00,0.00,0,0
1520064767,eth0,0.00,0.00,0.00,0,0,0.00,0.00,0.00,0,0,0.00,0.00,0,0
1520064767,s2,0.00,0.00,0.00,0,0,0.00,0.00,0.00,0,0,0.00,0.00,0,0
1520064767,s2-eth2,3677.00,125064.00,128741.00,125064,3677,52.00,52.00,104.00,52,52,0.00,0.00,0,0
1520064767,s2-eth1,114598.00,3570.00,118168.00,3570,114598,47.00,51.00,98.00,51,47,0.00,0.00,0,0
1520064767,lo,344.00,344.00,688.00,344,344,6.00,6.00,12.00,6,6,0.00,0.00,0,0
1520064767,s4,0.00,0.00,0.00,0,0,0.00,0.00,0.00,0,0,0.00,0.00,0,0
1520064767,total,118619.00,128978.00,247597.00,128978,118619,105.00,109.00,214.00,109,105,0.00,0.00,0,0
1520064768,s5,0.00,0.00,0.00,0,0,0.00,0.00,0.00,0,0,0.00,0.00,0,0
1520064768,eth0,0.00,0.00,0.00,0,0,0.00,0.00,0.00,0,0,0.00,0.00,0,0
1520064768,s2,0.00,0.00,0.00,0,0,0.00,0.00,0.00,0,0,0.00,0.00,0,0
1520064768,s2-eth2,2775.22,108367.63,111142.86,108476,2778,40.96,41.96,82.92,42,41,0.00,0.00,0,0
1520064768,s2-eth1,114351.65,2775.22,117126.88,2778,114466,44.96,40.96,85.91,41,45,0.00,0.00,0,0
1520064768,lo,0.00,0.00,0.00,0,0,0.00,0.00,0.00,0,0,0.00,0.00,0,0
1520064768,s4,0.00,0.00,0.00,0,0,0.00,0.00,0.00,0,0,0.00,0.00,0,0
1520064768,total,117126.88,111142.86,228269.73,111254,117244,85.91,82.92,168.83,83,86,0.00,0.00,0,0
1520064769,s5,0.00,0.00,0.00,0,0,0.00,0.00,0.00,0,0,0.00,0.00,0,0
1520064769,eth0,0.00,0.00,0.00,0,0,0.00,0.00,0.00,0,0,0.00,0.00,0,0
1520064769,s2,0.00,0.00,0.00,0,0,0.00,0.00,0.00,0,0,0.00,0.00,0,0
1520064769,s2-eth2,2712.00,109924.00,112636.00,109924,2712,40.00,42.00,82.00,42,40,0.00,0.00,0,0
1520064769,s2-eth1,105448.00,2712.00,108160.00,2712,105448,40.00,40.00,80.00,40,40,0.00,0.00,0,0
1520064769,lo,172.00,172.00,344.00,172,172,3.00,3.00,6.00,3,3,0.00,0.00,0,0
1520064769,s4,0.00,0.00,0.00,0,0,0.00,0.00,0.00,0,0,0.00,0.00,0,0
1520064769,total,108332.00,112808.00,221140.00,112808,108332,83.00,85.00,168.00,85,83,0.00,0.00,0,0
1520064770,s5,0.00,0.00,0.00,0,0,0.00,0.00,0.00,0,0,0.00,0.00,0,0
1520064770,eth0,0.00,0.00,0.00,0,0,0.00,0.00,0.00,0,0,0.00,0.00,0,0
1520064770,s2,0.00,0.00,0.00,0,0,0.00,0.00,0.00,0,0,0.00,0.00,0,0
1520064770,s2-eth2,2574.00,112556.00,115130.00,112556,2574,39.00,38.00,77.00,38,39,0.00,0.00,0,0
1520064770,s2-eth1,108146.00,2574.00,110720.00,2574,108146,37.00,39.00,76.00,39,37,0.00,0.00,0,0
1520064770,lo,0.00,0.00,0.00,0,0,0.00,0.00,0.00,0,0,0.00,0.00,0,0
1520064770,s4,0.00,0.00,0.00,0,0,0.00,0.00,0.00,0,0,0.00,0.00,0,0
1520064770,total,110609.39,115014.98,225624.38,115130,110720,75.92,76.92,152.85,77,76,0.00,0.00,0,0
1520064771,s5,0.00,0.00,0.00,0,0,0.00,0.00,0.00,0,0,0.00,0.00,0,0
1520064771,eth0,0.00,0.00,0.00,0,0,0.00,0.00,0.00,0,0,0.00,0.00,0,0
1520064771,s2,0.00,0.00,0.00,0,0,0.00,0.00,0.00,0,0,0.00,0.00,0,0
1520064771,s2-eth2,2238.00,105448.00,107686.00,105448,2238,33.00,40.00,73.00,40,33,0.00,0.00,0,0
1520064771,s2-eth1,108278.00,2238.00,110516.00,2238,108278,39.00,33.00,72.00,33,39,0.00,0.00,0,0
1520064771,lo,0.00,0.00,0.00,0,0,0.00,0.00,0.00,0,0,0.00,0.00,0,0
1520064771,s4,0.00,0.00,0.00,0,0,0.00,0.00,0.00,0,0,0.00,0.00,0,0
1520064771,total,110516.00,107686.00,218202.00,107686,110516,72.00,73.00,145.00,73,72,0.00,0.00,0,0
1520064772,s5,0.00,0.00,0.00,0,0,0.00,0.00,0.00,0,0,0.00,0.00,0,0
1520064772,eth0,0.00,0.00,0.00,0,0,0.00,0.00,0.00,0,0,0.00,0.00,0,0
1520064772,s2,0.00,0.00,0.00,0,0,0.00,0.00,0.00,0,0,0.00,0.00,0,0
1520064772,s2-eth2,2734.00,90902.00,93636.00,90902,2734,39.00,39.00,78.00,39,39,0.00,0.00,0,0
1520064772,s2-eth1,91034.00,2734.00,93768.00,2734,91034,41.00,39.00,80.00,39,41,0.00,0.00,0,0
1520064772,lo,344.00,344.00,688.00,344,344,6.00,6.00,12.00,6,6,0.00,0.00,0,0
1520064772,s4,0.00,0.00,0.00,0,0,0.00,0.00,0.00,0,0,0.00,0.00,0,0
1520064772,total,94017.98,93886.12,187904.09,93980,94112,85.91,83.92,169.83,84,86,0.00,0.00,0,0
1520064773,s5,0.00,0.00,0.00,0,0,0.00,0.00,0.00,0,0,0.00,0.00,0,0
1520064773,eth0,0.00,0.00,0.00,0,0,0.00,0.00,0.00,0,0,0.00,0.00,0,0
1520064773,s2,0.00,0.00,0.00,0,0,0.00,0.00,0.00,0,0,0.00,0.00,0,0
1520064773,s2-eth2,2574.00,121442.00,124016.00,121442,2574,39.00,41.00,80.00,41,39,0.00,0.00,0,0
1520064773,s2-eth1,103670.00,2574.00,106244.00,2574,103670,35.00,39.00,74.00,39,35,0.00,0.00,0,0
1520064773,lo,0.00,0.00,0.00,0,0,0.00,0.00,0.00,0,0,0.00,0.00,0,0
1520064773,s4,0.00,0.00,0.00,0,0,0.00,0.00,0.00,0,0,0.00,0.00,0,0
1520064773,total,106244.00,124016.00,230260.00,124016,106244,74.00,80.00,154.00,80,74,0.00,0.00,0,0
1520064774,s5,0.00,0.00,0.00,0,0,0.00,0.00,0.00,0,0,0.00,0.00,0,0
1520064774,eth0,0.00,0.00,0.00,0,0,0.00,0.00,0.00,0,0,0.00,0.00,0,0
1520064774,s2,0.00,0.00,0.00,0,0,0.00,0.00,0.00,0,0,0.00,0.00,0,0
1520064774,s2-eth2,2511.49,97978.02,100489.52,98076,2514,36.96,37.96,74.93,38,37,0.00,0.00,0,0
1520064774,s2-eth1,110155.84,2511.49,112667.34,2514,110266,42.96,36.96,79.92,37,43,0.00,0.00,0,0
1520064774,lo,171.83,171.83,343.66,172,172,3.00,3.00,5.99,3,3,0.00,0.00,0,0
1520064774,s4,0.00,0.00,0.00,0,0,0.00,0.00,0.00,0,0,0.00,0.00,0,0
1520064774,total,112839.16,100661.34,213500.50,100762,112952,82.92,77.92,160.84,78,83,0.00,0.00,0,0
1520064775,s5,0.00,0.00,0.00,0,0,0.00,0.00,0.00,0,0,0.00,0.00,0,0
1520064775,eth0,0.00,0.00,0.00,0,0,0.00,0.00,0.00,0,0,0.00,0.00,0,0
1520064775,s2,0.00,0.00,0.00,0,0,0.00,0.00,0.00,0,0,0.00,0.00,0,0
1520064775,s2-eth2,2706.00,121442.00,124148.00,121442,2706,41.00,41.00,82.00,41,41,0.00,0.00,0,0
1520064775,s2-eth1,109594.00,2706.00,112300.00,2706,109594,37.00,41.00,78.00,41,37,0.00,0.00,0,0
1520064775,lo,0.00,0.00,0.00,0,0,0.00,0.00,0.00,0,0,0.00,0.00,0,0
1520064775,s4,0.00,0.00,0.00,0,0,0.00,0.00,0.00,0,0,0.00,0.00,0,0
1520064775,total,112300.00,124148.00,236448.00,124148,112300,78.00,82.00,160.00,82,78,0.00,0.00,0,0
1520064776,s5,0.00,0.00,0.00,0,0,0.00,0.00,0.00,0,0,0.00,0.00,0,0
1520064776,eth0,0.00,0.00,0.00,0,0,0.00,0.00,0.00,0,0,0.00,0.00,0,0
1520064776,s2,0.00,0.00,0.00,0,0,0.00,0.00,0.00,0,0,0.00,0.00,0,0
1520064776,s2-eth2,2508.00,80568.00,83076.00,80568,2508,36.00,36.00,72.00,36,36,0.00,0.00,0,0
1520064776,s2-eth1,86492.00,2508.00,89000.00,2508,86492,38.00,36.00,74.00,36,38,0.00,0.00,0,0
1520064776,lo,0.00,0.00,0.00,0,0,0.00,0.00,0.00,0,0,0.00,0.00,0,0
1520064776,s4,0.00,0.00,0.00,0,0,0.00,0.00,0.00,0,0,0.00,0.00,0,0
1520064776,total,89000.00,83076.00,172076.00,83076,89000,74.00,72.00,146.00,72,74,0.00,0.00,0,0
1520064777,s5,0.00,0.00,0.00,0,0,0.00,0.00,0.00,0,0,0.00,0.00,0,0
1520064777,eth0,0.00,0.00,0.00,0,0,0.00,0.00,0.00,0,0,0.00,0.00,0,0
1520064777,s2,0.00,0.00,0.00,0,0,0.00,0.00,0.00,0,0,0.00,0.00,0,0
1520064777,s2-eth2,1564.44,68255.75,69820.18,68324,1566,22.98,25.97,48.95,26,23,0.00,0.00,0,0
1520064777,s2-eth1,62271.73,1564.44,63836.16,1566,62334,22.98,22.98,45.95,23,23,0.00,0.00,0,0
1520064777,lo,343.66,343.66,687.31,344,344,5.99,5.99,11.99,6,6,0.00,0.00,0,0
1520064777,s4,0.00,0.00,0.00,0,0,0.00,0.00,0.00,0,0,0.00,0.00,0,0
1520064777,total,64179.82,70163.84,134343.66,70234,64244,51.95,54.95,106.89,55,52,0.00,0.00,0,0
1520064778,s5,0.00,0.00,0.00,0,0,0.00,0.00,0.00,0,0,0.00,0.00,0,0
1520064778,eth0,0.00,0.00,0.00,0,0,0.00,0.00,0.00,0,0,0.00,0.00,0,0
1520064778,s2,0.00,0.00,0.00,0,0,0.00,0.00,0.00,0,0,0.00,0.00,0,0
1520064778,s2-eth2,1386.00,71088.00,72474.00,71088,1386,21.00,24.00,45.00,24,21,0.00,0.00,0,0
1520064778,s2-eth1,71154.00,1386.00,72540.00,1386,71154,25.00,21.00,46.00,21,25,0.00,0.00,0,0
1520064778,lo,0.00,0.00,0.00,0,0,0.00,0.00,0.00,0,0,0.00,0.00,0,0
1520064778,s4,0.00,0.00,0.00,0,0,0.00,0.00,0.00,0,0,0.00,0.00,0,0
1520064778,total,72540.00,72474.00,145014.00,72474,72540,46.00,45.00,91.00,45,46,0.00,0.00,0,0
1520064779,s5,0.00,0.00,0.00,0,0,0.00,0.00,0.00,0,0,0.00,0.00,0,0
1520064779,eth0,0.00,0.00,0.00,0,0,0.00,0.00,0.00,0,0,0.00,0.00,0,0
1520064779,s2,0.00,0.00,0.00,0,0,0.00,0.00,0.00,0,0,0.00,0.00,0,0
1520064779,s2-eth2,1618.38,71148.85,72767.23,71220,1620,23.98,25.97,49.95,26,24,0.00,0.00,0,0
1520064779,s2-eth1,62271.73,1618.38,63890.11,1620,62334,22.98,23.98,46.95,24,23,0.00,0.00,0,0
1520064779,lo,171.83,171.83,343.66,172,172,3.00,3.00,5.99,3,3,0.00,0.00,0,0
1520064779,s4,0.00,0.00,0.00,0,0,0.00,0.00,0.00,0,0,0.00,0.00,0,0
1520064779,total,64061.94,72939.06,137001.00,73012,64126,49.95,52.95,102.90,53,50,0.00,0.00,0,0
1520064780,s5,0.00,0.00,0.00,0,0,0.00,0.00,0.00,0,0,0.00,0.00,0,0
1520064780,eth0,0.00,0.00,0.00,0,0,0.00,0.00,0.00,0,0,0.00,0.00,0,0
1520064780,s2,0.00,0.00,0.00,0,0,0.00,0.00,0.00,0,0,0.00,0.00,0,0
1520064780,s2-eth2,1452.00,68126.00,69578.00,68126,1452,22.00,23.00,45.00,23,22,0.00,0.00,0,0
1520064780,s2-eth1,79974.00,1452.00,81426.00,1452,79974,27.00,22.00,49.00,22,27,0.00,0.00,0,0
1520064780,lo,0.00,0.00,0.00,0,0,0.00,0.00,0.00,0,0,0.00,0.00,0,0
1520064780,s4,0.00,0.00,0.00,0,0,0.00,0.00,0.00,0,0,0.00,0.00,0,0
1520064780,total,81426.00,69578.00,151004.00,69578,81426,49.00,45.00,94.00,45,49,0.00,0.00,0,0
1520064781,s5,0.00,0.00,0.00,0,0,0.00,0.00,0.00,0,0,0.00,0.00,0,0
1520064781,eth0,0.00,0.00,0.00,0,0,0.00,0.00,0.00,0,0,0.00,0.00,0,0
1520064781,s2,0.00,0.00,0.00,0,0,0.00,0.00,0.00,0,0,0.00,0.00,0,0
1520064781,s2-eth2,1912.09,88771.23,90683.32,88860,1914,28.97,29.97,58.94,30,29,0.00,0.00,0,0
1520064781,s2-eth1,73976.02,1912.09,75888.12,1914,74050,24.98,28.97,53.95,29,25,0.00,0.00,0,0
1520064781,lo,0.00,0.00,0.00,0,0,0.00,0.00,0.00,0,0,0.00,0.00,0,0
1520064781,s4,0.00,0.00,0.00,0,0,0.00,0.00,0.00,0,0,0.00,0.00,0,0
1520064781,total,75888.12,90683.32,166571.44,90774,75964,53.95,58.94,112.89,59,54,0.00,0.00,0,0
1520064782,s5,0.00,0.00,0.00,0,0,0.00,0.00,0.00,0,0,0.00,0.00,0,0
1520064782,eth0,0.00,0.00,0.00,0,0,0.00,0.00,0.00,0,0,0.00,0.00,0,0
1520064782,s2,0.00,0.00,0.00,0,0,0.00,0.00,0.00,0,0,0.00,0.00,0,0
1520064782,s2-eth2,2043.96,91730.27,93774.23,91822,2046,30.97,30.97,61.94,31,31,0.00,0.00,0,0
1520064782,s2-eth1,104014.98,2043.96,106058.95,2046,104119,36.96,30.97,67.93,31,37,0.00,0.00,0,0
1520064782,lo,343.66,343.66,687.31,344,344,5.99,5.99,11.99,6,6,0.00,0.00,0,0
1520064782,s4,0.00,0.00,0.00,0,0,0.00,0.00,0.00,0,0,0.00,0.00,0,0
1520064782,total,106402.60,94117.88,200520.48,94212,106509,73.93,67.93,141.86,68,74,0.00,0.00,0,0
1520064783,s5,0.00,0.00,0.00,0,0,0.00,0.00,0.00,0,0,0.00,0.00,0,0
1520064783,eth0,0.00,0.00,0.00,0,0,0.00,0.00,0.00,0,0,0.00,0.00,0,0
1520064783,s2,0.00,0.00,0.00,0,0,0.00,0.00,0.00,0,0,0.00,0.00,0,0
1520064783,s2-eth2,2885.00,109924.00,112809.00,109924,2885,42.00,42.00,84.00,42,42,0.00,0.00,0,0
1520064783,s2-eth1,98076.00,2778.00,100854.00,2778,98076,38.00,41.00,79.00,41,38,0.00,0.00,0,0
1520064783,lo,0.00,0.00,0.00,0,0,0.00,0.00,0.00,0,0,0.00,0.00,0,0
1520064783,s4,0.00,0.00,0.00,0,0,0.00,0.00,0.00,0,0,0.00,0.00,0,0
1520064783,total,100961.00,112702.00,213663.00,112702,100961,80.00,83.00,163.00,83,80,0.00,0.00,0,0
1520064784,s5,0.00,0.00,0.00,0,0,0.00,0.00,0.00,0,0,0.00,0.00,0,0
1520064784,eth0,0.00,0.00,0.00,0,0,0.00,0.00,0.00,0,0,0.00,0.00,0,0
1520064784,s2,0.00,0.00,0.00,0,0,0.00,0.00,0.00,0,0,0.00,0.00,0,0
1520064784,s2-eth2,2376.00,109660.00,112036.00,109660,2376,36.00,38.00,74.00,38,36,0.00,0.00,0,0
1520064784,s2-eth1,118546.00,2376.00,120922.00,2376,118546,41.00,36.00,77.00,36,41,0.00,0.00,0,0
1520064784,lo,172.00,172.00,344.00,172,172,3.00,3.00,6.00,3,3,0.00,0.00,0,0
1520064784,s4,0.00,0.00,0.00,0,0,0.00,0.00,0.00,0,0,0.00,0.00,0,0
1520064784,total,121094.00,112208.00,233302.00,112208,121094,80.00,77.00,157.00,77,80,0.00,0.00,0,0
1520064785,s5,0.00,0.00,0.00,0,0,0.00,0.00,0.00,0,0,0.00,0.00,0,0
1520064785,eth0,0.00,0.00,0.00,0,0,0.00,0.00,0.00,0,0,0.00,0.00,0,0
1520064785,s2,0.00,0.00,0.00,0,0,0.00,0.00,0.00,0,0,0.00,0.00,0,0
1520064785,s2-eth2,3186.00,112886.00,116072.00,112886,3186,43.00,43.00,86.00,43,43,0.00,0.00,0,0
1520064785,s2-eth1,102486.00,2844.00,105330.00,2844,102486,39.00,42.00,81.00,42,39,0.00,0.00,0,0
1520064785,lo,0.00,0.00,0.00,0,0,0.00,0.00,0.00,0,0,0.00,0.00,0,0
1520064785,s4,0.00,0.00,0.00,0,0,0.00,0.00,0.00,0,0,0.00,0.00,0,0
1520064785,total,105672.00,115730.00,221402.00,115730,105672,82.00,85.00,167.00,85,82,0.00,0.00,0,0
1520064786,s5,0.00,0.00,0.00,0,0,0.00,0.00,0.00,0,0,0.00,0.00,0,0
1520064786,eth0,0.00,0.00,0.00,0,0,0.00,0.00,0.00,0,0,0.00,0.00,0,0
1520064786,s2,0.00,0.00,0.00,0,0,0.00,0.00,0.00,0,0,0.00,0.00,0,0
1520064786,s2-eth2,2040.00,75140.00,77180.00,75140,2040,30.00,30.00,60.00,30,30,0.00,0.00,0,0
1520064786,s2-eth1,78790.00,2040.00,80830.00,2040,78790,31.00,30.00,61.00,30,31,0.00,0.00,0,0
1520064786,lo,0.00,0.00,0.00,0,0,0.00,0.00,0.00,0,0,0.00,0.00,0,0
1520064786,s4,0.00,0.00,0.00,0,0,0.00,0.00,0.00,0,0,0.00,0.00,0,0
1520064786,total,80830.00,77180.00,158010.00,77180,80830,61.00,60.00,121.00,60,61,0.00,0.00,0,0
1520064787,s5,0.00,0.00,0.00,0,0,0.00,0.00,0.00,0,0,0.00,0.00,0,0
1520064787,eth0,0.00,0.00,0.00,0,0,0.00,0.00,0.00,0,0,0.00,0.00,0,0
1520064787,s2,0.00,0.00,0.00,0,0,0.00,0.00,0.00,0,0,0.00,0.00,0,0
1520064787,s2-eth2,330.00,66.00,396.00,66,330,5.00,1.00,6.00,1,5,0.00,0.00,0,0
15