20180303030052,10.0.0.2,42997,10.0.0.1,5001,3,0.0-1.0,393216,3145728
20180303030053,10.0.0.2,42997,10.0.0.1,5001,3,1.0-2.0,917504,7340032
20180303030053,10.0.0.2,42997,10.0.0.1,5001,3,2.0-3.0,393216,3145728
20180303030054,10.0.0.2,42997,10.0.0.1,5001,3,3.0-4.0,262144,2097152
20180303030055,10.0.0.2,42997,10.0.0.1,5001,3,4.0-5.0,262144,2097152
20180303030056,10.0.0.2,42997,10.0.0.1,5001,3,5.0-6.0,262144,2097152
20180303030057,10.0.0.2,42997,10.0.0.1,5001,3,6.0-7.0,393216,3145728
20180303030058,10.0.0.2,42997,10.0.0.1,5001,3,7.0-8.0,262144,2097152
20180303030059,10.0.0.2,42997,10.0.0.1,5001,3,8.0-9.0,262144,2097152
20180303030100,10.0.0.2,42997,10.0.0.1,5001,3,9.0-10.0,262144,2097152
20180303030101,10.0.0.2,42997,10.0.0.1,5001,3,10.0-11.0,655360,5242880
20180303030102,10.0.0.2,42997,10.0.0.1,5001,3,11.0-12.0,262144,2097152
20180303030103,10.0.0.2,42997,10.0.0.1,5001,3,12.0-13.0,262144,2097152
20180303030104,10.0.0.2,42997,10.0.0.1,5001,3,13.0-14.0,262144,2097152
20180303030105,10.0.0.2,42997,10.0.0.1,5001,3,14.0-15.0,393216,3145728
20180303030106,10.0.0.2,42997,10.0.0.1,5001,3,15.0-16.0,262144,2097152
20180303030108,10.0.0.2,42997,10.0.0.1,5001,3,16.0-17.0,524288,4194304
20180303030108,10.0.0.2,42997,10.0.0.1,5001,3,17.0-18.0,262144,2097152
20180303030110,10.0.0.2,42997,10.0.0.1,5001,3,18.0-19.0,393216,3145728
20180303030111,10.0.0.2,42997,10.0.0.1,5001,3,19.0-20.0,262144,2097152
20180303030112,10.0.0.2,42997,10.0.0.1,5001,3,20.0-21.0,262144,2097152
20180303030113,10.0.0.2,42997,10.0.0.1,5001,3,21.0-22.0,393216,3145728
20180303030114,10.0.0.2,42997,10.0.0.1,5001,3,22.0-23.0,262144,2097152
20180303030115,10.0.0.2,42997,10.0.0.1,5001,3,23.0-24.0,262144,2097152
20180303030116,10.0.0.2,42997,10.0.0.1,5001,3,24.0-25.0,262144,2097152
20180303030117,10.0.0.2,42997,10.0.0.1,5001,3,25.0-26.0,262144,2097152
20180303030118,10.0.0.2,42997,10.0.0.1,5001,3,26.0-27.0,393216,3145728
20180303030119,10.0.0.2,42997,10.0.0.1,5001,3,27.0-28.0,262144,2097152
20180303030120,10.0.0.2,42997,10.0.0.1,5001,3,28.0-29.0,262144,2097152
20180303030120,10.0.0.2,42997,10.0.0.1,5001,3,29.0-30.0,262144,2097152
20180303030121,10.0.0.2,42997,10.0.0.1,5001,3,30.0-31.0,393216,3145728
20180303030122,10.0.0.2,42997,10.0.0.1,5001,3,31.0-32.0,262144,2097152
20180303030123,10.0.0.2,42997,10.0.0.1,5001,3,32.0-33.0,262144,2097152
20180303030124,10.0.0.2,42997,10.0.0.1,5001,3,33.0-34.0,262144,2097152
20180303030125,10.0.0.2,42997,10.0.0.1,5001,3,34.0-35.0,393216,3145728
20180303030126,10.0.0.2,42997,10.0.0.1,5001,3,35.0-36.0,262144,2097152
20180303030128,10.0.0.2,42997,10.0.0.1,5001,3,36.0-37.0,524288,4194304
20180303030129,10.0.0.2,42997,10.0.0.1,5001,3,37.0-38.0,262144,2097152
20180303030130,10.0.0.2,42997,10.0.0.1,5001,3,38.0-39.0,393216,3145728
20180303030131,10.0.0.2,42997,10.0.0.1,5001,3,39.0-40.0,262144,2097152
20180303030131,10.0.0.2,42997,10.0.0.1,5001,3,40.0-41.0,262144,2097152
20180303030132,10.0.0.2,42997,10.0.0.1,5001,3,41.0-42.0,262144,2097152
20180303030133,10.0.0.2,42997,10.0.0.1,5001,3,42.0-43.0,262144,2097152
20180303030134,10.0.0.2,42997,10.0.0.1,5001,3,43.0-44.0,393216,3145728
20180303030135,10.0.0.2,42997,10.0.0.1,5001,3,44.0-45.0,262144,2097152
20180303030136,10.0.0.2,42997,10.0.0.1,5001,3,45.0-46.0,262144,2097152
20180303030137,10.0.0.2,42997,10.0.0.1,5001,3,46.0-47.0,262144,2097152
20180303030138,10.0.0.2,42997,10.0.0.1,5001,3,47.0-48.0,393216,3145728
20180303030139,10.0.0.2,42997,10.0.0.1,5001,3,48.0-49.0,262144,2097152
20180303030140,10.0.0.2,42997,10.0.0.1,5001,3,49.0-50.0,262144,2097152
20180303030141,10.0.0.2,42997,10.0.0.1,5001,3,50.0-51.0,393216,3145728
20180303030142,10.0.0.2,42997,10.0.0.1,5001,3,51.0-52.0,262144,2097152
20180303030143,10.0.0.2,42997,10.0.0.1,5001,3,52.0-53.0,262144,2097152
20180303030144,10.0.0.2,42997,10.0.0.1,5001,3,53.0-54.0,262144,2097152
20180303030145,10.0.0.2,42997,10.0.0.1,5001,3,54.0-55.0,393216,3145728
20180303030146,10.0.0.2,42997,10.0.0.1,5001,3,55.0-56.0,262144,2097152
20180303030147,10.0.0.2,42997,10.0.0.1,5001,3,56.0-57.0,262144,2097152
20180303030148,10.0.0.2,42997,10.0.0.1,5001,3,57.0-58.0,262144,2097152
20180303030150,10.0.0.2,42997,10.0.0.1,5001,3,58.0-59.0,655360,5242880
20180303030150,10.0.0.2,42997,10.0.0.1,5001,3,59.0-60.0,0,0
20180303030150,10.0.0.2,42997,10.0.0.1,5001,3,0.0-60.1,19398656,2581245
