[32m*** Dumping network connections:[0m
[34m*** Testing connectivity[0m
[35m*** Running experiment[0m
[1.913858966733857]
[33mExperiment took 71.070 seconds[0m
s1-eth2
saving to mptcp-02-Mar03-03:05/cwnd.png
Started at Sat Mar 3 03:05:39 EST 2018
Ended at Sat Mar 3 03:06:51 EST 2018
Output saved to mptcp-02-Mar03-03:05
