20180113045150,10.0.0.2,60311,10.0.0.1,5001,3,0.0-1.0,4194304,33554432
20180113045151,10.0.0.2,60311,10.0.0.1,5001,3,1.0-2.0,5898240,47185920
20180113045152,10.0.0.2,60311,10.0.0.1,5001,3,2.0-3.0,5505024,44040192
20180113045153,10.0.0.2,60311,10.0.0.1,5001,3,3.0-4.0,5898240,47185920
20180113045154,10.0.0.2,60311,10.0.0.1,5001,3,4.0-5.0,5505024,44040192
20180113045155,10.0.0.2,60311,10.0.0.1,5001,3,5.0-6.0,5898240,47185920
20180113045156,10.0.0.2,60311,10.0.0.1,5001,3,6.0-7.0,5898240,47185920
20180113045157,10.0.0.2,60311,10.0.0.1,5001,3,7.0-8.0,5505024,44040192
20180113045158,10.0.0.2,60311,10.0.0.1,5001,3,8.0-9.0,5898240,47185920
20180113045159,10.0.0.2,60311,10.0.0.1,5001,3,9.0-10.0,5898240,47185920
20180113045200,10.0.0.2,60311,10.0.0.1,5001,3,10.0-11.0,5505024,44040192
20180113045201,10.0.0.2,60311,10.0.0.1,5001,3,11.0-12.0,6029312,48234496
20180113045202,10.0.0.2,60311,10.0.0.1,5001,3,12.0-13.0,5636096,45088768
20180113045203,10.0.0.2,60311,10.0.0.1,5001,3,13.0-14.0,6029312,48234496
20180113045204,10.0.0.2,60311,10.0.0.1,5001,3,14.0-15.0,5636096,45088768
20180113045205,10.0.0.2,60311,10.0.0.1,5001,3,15.0-16.0,5505024,44040192
20180113045206,10.0.0.2,60311,10.0.0.1,5001,3,16.0-17.0,6029312,48234496
20180113045207,10.0.0.2,60311,10.0.0.1,5001,3,17.0-18.0,5636096,45088768
20180113045208,10.0.0.2,60311,10.0.0.1,5001,3,18.0-19.0,6029312,48234496
20180113045209,10.0.0.2,60311,10.0.0.1,5001,3,19.0-20.0,5636096,45088768
20180113045210,10.0.0.2,60311,10.0.0.1,5001,3,20.0-21.0,6029312,48234496
20180113045211,10.0.0.2,60311,10.0.0.1,5001,3,21.0-22.0,5636096,45088768
20180113045212,10.0.0.2,60311,10.0.0.1,5001,3,22.0-23.0,5505024,44040192
20180113045213,10.0.0.2,60311,10.0.0.1,5001,3,23.0-24.0,6160384,49283072
20180113045214,10.0.0.2,60311,10.0.0.1,5001,3,24.0-25.0,5505024,44040192
20180113045215,10.0.0.2,60311,10.0.0.1,5001,3,25.0-26.0,6160384,49283072
20180113045216,10.0.0.2,60311,10.0.0.1,5001,3,26.0-27.0,5505024,44040192
20180113045217,10.0.0.2,60311,10.0.0.1,5001,3,27.0-28.0,6029312,48234496
20180113045218,10.0.0.2,60311,10.0.0.1,5001,3,28.0-29.0,5636096,45088768
20180113045219,10.0.0.2,60311,10.0.0.1,5001,3,29.0-30.0,6029312,48234496
20180113045220,10.0.0.2,60311,10.0.0.1,5001,3,30.0-31.0,5636096,45088768
20180113045221,10.0.0.2,60311,10.0.0.1,5001,3,31.0-32.0,5505024,44040192
20180113045222,10.0.0.2,60311,10.0.0.1,5001,3,32.0-33.0,5636096,45088768
20180113045223,10.0.0.2,60311,10.0.0.1,5001,3,33.0-34.0,6029312,48234496
20180113045224,10.0.0.2,60311,10.0.0.1,5001,3,34.0-35.0,5636096,45088768
20180113045225,10.0.0.2,60311,10.0.0.1,5001,3,35.0-36.0,5636096,45088768
20180113045226,10.0.0.2,60311,10.0.0.1,5001,3,36.0-37.0,6029312,48234496
20180113045227,10.0.0.2,60311,10.0.0.1,5001,3,37.0-38.0,5505024,44040192
20180113045228,10.0.0.2,60311,10.0.0.1,5001,3,38.0-39.0,6160384,49283072
20180113045229,10.0.0.2,60311,10.0.0.1,5001,3,39.0-40.0,5505024,44040192
20180113045230,10.0.0.2,60311,10.0.0.1,5001,3,40.0-41.0,5636096,45088768
20180113045231,10.0.0.2,60311,10.0.0.1,5001,3,41.0-42.0,6029312,48234496
20180113045232,10.0.0.2,60311,10.0.0.1,5001,3,42.0-43.0,5636096,45088768
20180113045233,10.0.0.2,60311,10.0.0.1,5001,3,43.0-44.0,6029312,48234496
20180113045234,10.0.0.2,60311,10.0.0.1,5001,3,44.0-45.0,5636096,45088768
20180113045235,10.0.0.2,60311,10.0.0.1,5001,3,45.0-46.0,5505024,44040192
20180113045236,10.0.0.2,60311,10.0.0.1,5001,3,46.0-47.0,6029312,48234496
20180113045237,10.0.0.2,60311,10.0.0.1,5001,3,47.0-48.0,5242880,41943040
20180113045238,10.0.0.2,60311,10.0.0.1,5001,3,48.0-49.0,5505024,44040192
20180113045239,10.0.0.2,60311,10.0.0.1,5001,3,49.0-50.0,5636096,45088768
20180113045240,10.0.0.2,60311,10.0.0.1,5001,3,50.0-51.0,5505024,44040192
20180113045241,10.0.0.2,60311,10.0.0.1,5001,3,51.0-52.0,6160384,49283072
20180113045242,10.0.0.2,60311,10.0.0.1,5001,3,52.0-53.0,5505024,44040192
20180113045243,10.0.0.2,60311,10.0.0.1,5001,3,53.0-54.0,6029312,48234496
20180113045244,10.0.0.2,60311,10.0.0.1,5001,3,54.0-55.0,5636096,45088768
20180113045245,10.0.0.2,60311,10.0.0.1,5001,3,55.0-56.0,5636096,45088768
20180113045246,10.0.0.2,60311,10.0.0.1,5001,3,56.0-57.0,6029312,48234496
20180113045247,10.0.0.2,60311,10.0.0.1,5001,3,57.0-58.0,5636096,45088768
20180113045248,10.0.0.2,60311,10.0.0.1,5001,3,58.0-59.0,6029312,48234496
20180113045249,10.0.0.2,60311,10.0.0.1,5001,3,59.0-60.0,5636096,45088768
20180113045249,10.0.0.2,60311,10.0.0.1,5001,3,0.0-60.0,344064000,45851342
