20180303025929,10.0.0.2,42980,10.0.0.1,5001,3,0.0-1.0,393216,3145728
20180303025930,10.0.0.2,42980,10.0.0.1,5001,3,1.0-2.0,262144,2097152
20180303025931,10.0.0.2,42980,10.0.0.1,5001,3,2.0-3.0,262144,2097152
20180303025932,10.0.0.2,42980,10.0.0.1,5001,3,3.0-4.0,131072,1048576
20180303025933,10.0.0.2,42980,10.0.0.1,5001,3,4.0-5.0,262144,2097152
20180303025934,10.0.0.2,42980,10.0.0.1,5001,3,5.0-6.0,262144,2097152
20180303025935,10.0.0.2,42980,10.0.0.1,5001,3,6.0-7.0,262144,2097152
20180303025936,10.0.0.2,42980,10.0.0.1,5001,3,7.0-8.0,131072,1048576
20180303025937,10.0.0.2,42980,10.0.0.1,5001,3,8.0-9.0,262144,2097152
20180303025938,10.0.0.2,42980,10.0.0.1,5001,3,9.0-10.0,262144,2097152
20180303025939,10.0.0.2,42980,10.0.0.1,5001,3,10.0-11.0,262144,2097152
20180303025940,10.0.0.2,42980,10.0.0.1,5001,3,11.0-12.0,262144,2097152
20180303025941,10.0.0.2,42980,10.0.0.1,5001,3,12.0-13.0,262144,2097152
20180303025942,10.0.0.2,42980,10.0.0.1,5001,3,13.0-14.0,131072,1048576
20180303025943,10.0.0.2,42980,10.0.0.1,5001,3,14.0-15.0,262144,2097152
20180303025944,10.0.0.2,42980,10.0.0.1,5001,3,15.0-16.0,262144,2097152
20180303025945,10.0.0.2,42980,10.0.0.1,5001,3,16.0-17.0,262144,2097152
20180303025946,10.0.0.2,42980,10.0.0.1,5001,3,17.0-18.0,131072,1048576
20180303025947,10.0.0.2,42980,10.0.0.1,5001,3,18.0-19.0,262144,2097152
20180303025948,10.0.0.2,42980,10.0.0.1,5001,3,19.0-20.0,262144,2097152
20180303025949,10.0.0.2,42980,10.0.0.1,5001,3,20.0-21.0,262144,2097152
20180303025950,10.0.0.2,42980,10.0.0.1,5001,3,21.0-22.0,262144,2097152
20180303025951,10.0.0.2,42980,10.0.0.1,5001,3,22.0-23.0,131072,1048576
20180303025953,10.0.0.2,42980,10.0.0.1,5001,3,23.0-24.0,262144,2097152
20180303025953,10.0.0.2,42980,10.0.0.1,5001,3,24.0-25.0,131072,1048576
20180303025954,10.0.0.2,42980,10.0.0.1,5001,3,25.0-26.0,131072,1048576
20180303025955,10.0.0.2,42980,10.0.0.1,5001,3,26.0-27.0,262144,2097152
20180303025956,10.0.0.2,42980,10.0.0.1,5001,3,27.0-28.0,262144,2097152
20180303025958,10.0.0.2,42980,10.0.0.1,5001,3,28.0-29.0,262144,2097152
20180303025958,10.0.0.2,42980,10.0.0.1,5001,3,29.0-30.0,131072,1048576
20180303025959,10.0.0.2,42980,10.0.0.1,5001,3,30.0-31.0,262144,2097152
20180303030000,10.0.0.2,42980,10.0.0.1,5001,3,31.0-32.0,262144,2097152
20180303030001,10.0.0.2,42980,10.0.0.1,5001,3,32.0-33.0,131072,1048576
20180303030002,10.0.0.2,42980,10.0.0.1,5001,3,33.0-34.0,262144,2097152
20180303030003,10.0.0.2,42980,10.0.0.1,5001,3,34.0-35.0,262144,2097152
20180303030004,10.0.0.2,42980,10.0.0.1,5001,3,35.0-36.0,262144,2097152
20180303030005,10.0.0.2,42980,10.0.0.1,5001,3,36.0-37.0,131072,1048576
20180303030006,10.0.0.2,42980,10.0.0.1,5001,3,37.0-38.0,262144,2097152
20180303030007,10.0.0.2,42980,10.0.0.1,5001,3,38.0-39.0,262144,2097152
20180303030008,10.0.0.2,42980,10.0.0.1,5001,3,39.0-40.0,131072,1048576
20180303030009,10.0.0.2,42980,10.0.0.1,5001,3,40.0-41.0,262144,2097152
20180303030010,10.0.0.2,42980,10.0.0.1,5001,3,41.0-42.0,262144,2097152
20180303030011,10.0.0.2,42980,10.0.0.1,5001,3,42.0-43.0,262144,2097152
20180303030012,10.0.0.2,42980,10.0.0.1,5001,3,43.0-44.0,262144,2097152
20180303030013,10.0.0.2,42980,10.0.0.1,5001,3,44.0-45.0,131072,1048576
20180303030014,10.0.0.2,42980,10.0.0.1,5001,3,45.0-46.0,262144,2097152
20180303030015,10.0.0.2,42980,10.0.0.1,5001,3,46.0-47.0,262144,2097152
20180303030016,10.0.0.2,42980,10.0.0.1,5001,3,47.0-48.0,262144,2097152
20180303030017,10.0.0.2,42980,10.0.0.1,5001,3,48.0-49.0,262144,2097152
20180303030018,10.0.0.2,42980,10.0.0.1,5001,3,49.0-50.0,131072,1048576
20180303030019,10.0.0.2,42980,10.0.0.1,5001,3,50.0-51.0,262144,2097152
20180303030020,10.0.0.2,42980,10.0.0.1,5001,3,51.0-52.0,262144,2097152
20180303030021,10.0.0.2,42980,10.0.0.1,5001,3,52.0-53.0,262144,2097152
20180303030022,10.0.0.2,42980,10.0.0.1,5001,3,53.0-54.0,131072,1048576
20180303030023,10.0.0.2,42980,10.0.0.1,5001,3,54.0-55.0,262144,2097152
20180303030024,10.0.0.2,42980,10.0.0.1,5001,3,55.0-56.0,262144,2097152
20180303030025,10.0.0.2,42980,10.0.0.1,5001,3,56.0-57.0,262144,2097152
20180303030026,10.0.0.2,42980,10.0.0.1,5001,3,57.0-58.0,262144,2097152
20180303030027,10.0.0.2,42980,10.0.0.1,5001,3,58.0-59.0,131072,1048576
20180303030028,10.0.0.2,42980,10.0.0.1,5001,3,59.0-60.0,262144,2097152
20180303030028,10.0.0.2,42980,10.0.0.1,5001,3,0.0-60.7,14024704,1848743
